P37646
P37647
V5V0R8
P30613
P20932
P20933
Q9U7N7
B1P123
P30347
Q60358
P77258
Q42538
P25374
Q9YGB0
P77256
Q47013
Q9YGB5
S6B6L9
Q2TSC7
O25500
P23919
Q8RHX2
P23917
Q54N49
Q6PSL4
Q6PSL5
P31210
Q31QV2
O80400
Q9UBM8
P77783
P77781
Q9UBM7
P77788
P20648
O65876
Q59819
P56579
Q9SMP5
Q0H2D8
Q84F15
Q84F16
Q2MJ20
B3ENP2
A0A0H3K7D6
O30509
O30508
P39398
H2K893
P34047
I3VE74
Q9M9M9
A3SK19
Q4KKA1
Q9SC13
A0A0H3JTR6
Q38946
Q38944
P59287
P10478
A0A9I9
P21189
Q08742
P29409
P16431
P32263
P32476
Q7XZR6
P9WFF7
P0A8G6
P9WFF5
P0A8G0
Q8KHZ8
P0A8G3
Q04430
P0A8G9
Q9P212
P00547
Q7DAV2
P74250
Q92835
Q57851
P74258
P74259
Q46821
P29683
Q46822
Q2L4H3
P77257
Q9C971
Q9FNF2
Q767F1
Q9ZU25
P04037
P46481
P46482
P53704
P04039
Q841S6
P21920
Q59109
P00722
Q5V8A5
Q5V8A7
Q5V8A6
Q5V8A8
P00729
Q9L4Y0
Q9NWM0
Q7XJM2
Q9ALN1
Q9ALN0
Q9ALN3
P24704
Q9ALN5
Q9ALN4
Q9ALN7
Q9ALN6
Q9ALN9
Q9ALN8
A5A547
A5A545
Q92523
O13317
A3CK37
P9WPG7
P58415
Q8VSV8
P10507
Q2MF66
Q40251
A0FK10
P0AEE3
P75124
P27443
P0AEE8
P27449
Q88CA3
Q8ZKS2
Q0WW21
A0A181F8T0
A3KBE8
O69002
Q96HA8
P72319
P72318
P72317
P72316
P06865
B2Z3V8
O33823
O87474
S4S3E1
P19079
Q9ZUH5
Q9ZUH4
Q9KT46
Q8X134
P17334
Q14674
Q0KBC8
Q65CJ7
A7XRY6
Q57197
O82238
Q96BT7
Q8H780
Q944B6
Q5J1Q6
A0A222FYP8
P77570
Q51939
A7XRY0
P05804
A0A1S6M1L9
Q9FT37
Q96L58
Q57991
P0ADG1
B5UAT8
P40308
Q7XHW5
Q8GNT2
O52552
O04353
O52550
Q9V2Z6
Q9V2Z7
Q9SID2
P21219
P0AAA7
K4JFB7
P21217
K4JFB2
C0JRE5
C0JRE6
C0JRE7
P21672
P16558
C0JRE8
Q9BXJ9
Q9S4D5
U6C7C6
Q9LE06
Q9UV63
Q9FYC2
G3FLZ7
P33883
O15067
Q03184
P60891
Q1NEJ0
Q813T3
Q8NTP4
P84820
P16429
Q9KWL3
Q9KWL6
P07099
Q9F8X1
Q01968
D9TT09
Q51663
Q51662
A0F0B3
A0F0B5
A0F0B4
B0VCM6
B0VCM7
O25312
O25313
O25310
O25311
Q8LB02
F1CWD7
F1CWD6
F1CWD5
F1CWD4
A0A0K8P6T7
P0C0R7
Q4J894
D3RNN7
Q9XB61
D3RNN8
P0AB65
P0AB67
Q51593
Q51592
Q8W1W8
Q2T5S0
Q5VRI5
P0A847
Q9Y2T3
Q9L9U9
O94205
Q9SRQ6
Q9SRQ7
J7I4B7
Q9SRQ2
B5SX65
P80859
P11998
Q6V4H0
A0A0H5B838
P77444
Q65399
P39701
Q9I028
E5KJA6
E5KJA0
E5KJA1
P39707
P39396
Q8VZC0
Q8H1S0
Q50EK2
Q00764
Q50EK6
P23100
P23101
P71422
P23105
P71426
P23107
O29976
P20132
A0A075X8S7
A0R607
A9X7L0
Q40161
Q01581
Q8KB06
P54424
K7WDL7
Q83V27
Q83V28
O75390
P52643
Q949P1
P52647
Q17938
P08524
Q47679
Q93PS9
P00948
Q9SE00
P46010
Q8GW72
P46019
Q9K9G9
P42953
Q9BSD7
H1ZV37
P42954
Q9KZF5
P32701
P32705
P05654
P05655
O52554
O85740
O85746
Q9RB52
Q2P5V2
P0A877
P0A870
P0A873
Q04607
Q5K129
P28834
Q5W254
D2WKD9
P72818
P27306
P27305
P27302
P27303
P27300
P10477
Q4KKA2
Q92UV8
P07874
E2IUA6
E2IUA7
P19440
E2IUA8
Q92UV7
Q76LT2
Q16518
Q9SC16
K4JV70
E9RFT0
E9RFT1
E9RFT2
Q7WTU0
Q58428
G1UBD9
Q8NCW5
O23918
O23917
G1UBD1
P11435
G1UBD5
Q2G2X4
P33359
Q9WYR4
Q9LCB4
P0DL13
Q9LCB9
O81931
Q9AXM6
Q9SW18
Q6TGC4
Q84LA6
F4JUY5
P56937
P19732
Q841L8
P0AFZ7
P16266
O14684
P41793
Q9RKS8
P50197
Q9RKS7
Q9AJM0
Q96V77
P0C8J8
Q00973
Q56YA5
Q9SLC8
P23686
P0C8J6
Q0P8I6
Q0P8I7
P37666
Q1KLR8
G2INY4
P77272
Q3IZ90
Q3IZ91
P75682
P20485
P25358
Q6TFC4
Q6TFC5
Q6TFC6
P77215
O52942
Q57878
A0A0E3D9Z8
Q42553
Q31LC2
O35826
P23971
P23970
P23973
Q6YP21
P69910
P11347
P69434
Q8CVD0
Q53UH5
P25503
Q47318
Q47316
P06609
E3GQB2
B4YYR2
Q40593
P33940
Q9SMN1
O33434
P80077
Q9SKC9
C1I202
Q2RIB4
Q82IZ1
P9WJN3
Q2YIM3
Q8NJP6
Q8A8Y4
Q888H1
Q3IYV7
A7IPX7
Q9XAP2
O95340
A8CDW6
M1X7K0
P31548
P31547
P31014
P31545
A8CDW8
Q88JX5
Q9SQR2
P55228
Q88JX9
Q88JX8
P9WFF9
Q9Y600
Q00519
Q01172
P76658
P28337
Q04458
P28330
A9BHI9
Q9V1Y5
P0A8I8
Q40577
P0A8I5
P0A8I1
P9WI53
Q66DP5
Q8VYF5
S0DTP6
Q9L5A4
Q08548
P51850
P0ABF8
Q64ZV0
Q5JEK6
Q92CL8
O43916
P0ABF1
A0A0M3WPI5
O32210
P29680
Q46801
Q46800
P76535
Q0QFQ3
Q9FYU1
D4GSH6
P53720
Q5QEX8
Q8KN96
P21283
Q9C955
P09029
P60546
Q59128
Q59129
Q40316
V5TD18
P68398
P0A7F9
V5TD11
B5BSX1
Q8G9L1
Q8G9L0
Q8G9L3
Q8G9L2
Q08959
O08424
Q5J1Q7
A4F7P8
Q5P5I4
Q9RAH6
A0A0J6G7P5
O22182
O22183
Q7XL00
Q7WSH4
Q7WSH6
P72156
A3DCY5
P08192
P0A7F3
P08194
P08195
P23378
O60017
Q9KPI8
D4Z2G1
P0AEK4
P0AEK7
P0AEK2
A0A0B6E396
P72480
P0AFE4
Q93S10
P26224
Q5J1R4
P9WMY3
P9WMY5
P54981
Q13219
P54989
O82179
Q7X8Q2
F8FZQ5
P68739
E0N696
P14611
A1BE87
L7VFL7
O31246
O27002
Q2HEW5
Q2HEW4
F2K081
Q9FR37
Q99437
Q99380
Q9K499
A0A0D5YGN3
Q57609
D4YGY2
D4YGY5
D4YGY4
D4YGY7
Q9H0N5
Q00G65
P05825
O07460
O07461
O07462
O07463
P11086
Q7CRQ0
A3QME3
Q51956
P40857
P04035
P9WNY9
A0A1S6M1N0
Q2RWR2
Q8TK00
Q9XGY7
A6L081
P38942
P38945
P38946
P38947
P04994
P04995
P04996
P12758
P04993
Q58646
Q8VQN0
F4KBF5
A3DBF5
P13482
P13484
P13485
X5EH87
Q01398
O14744
Q7M0P9
H1AD96
P12281
Q5SRI9
P16440
D0E8I4
P16442
P16444
P22412
Q51601
Q51603
Q51602
O74294
B4FY98
P15252
Q9L4Y1
P16677
O06930
Q06625
Q86GS5
Q8NCH0
P0AE34
P0AE37
Q12571
P0AE30
A9ZMK1
P75745
P75746
P75742
Q9P8D8
P0A0A8
F1KT84
Q8KPP1
Q8KPP2
P0A0A5
Q8KPP6
Q9I6Z0
Q55389
Q6RX91
P38238
A1XLE2
K4C9E2
P80877
P29853
P11551
L8EUS8
Q5LFK3
Q5LFK4
Q9S714
Q8GYW7
P0AC53
A2EI82
P71447
Q8NBJ5
P0A112
P71119
Q9F723
P0A110
C0STU2
P75358
P75359
P0A7A5
P0A115
P0A7A7
P0A7A9
F7J1C8
A0A0H3C4T2
P15031
O48917
B2HIM3
P08506
I3XLC2
O87646
A0P951
P61887
P0AFR2
D5IGG0
Q58186
D5IGG6
P61889
P18283
Q47690
P43550
Q2Q094
Q2Q093
Q86U10
Q5P3F4
A0A0A1GNW8
Q6SQJ5
Q5P3F3
Q5P3F2
Q5RLY5
Q99943
P42206
P42976
P45522
P39277
P27098
P27099
P32099
P28810
P76461
P76460
P76469
P40711
P04173
P62617
Q8S3C0
P62615
P18133
P0A890
P04179
Q9LBF8
Q9LBF9
B1B3P3
P9WIE5
Q9SEK6
J7FK02
Q3J5B6
Q7Z6J9
P00888
Q9LBF7
O27491
O27498
F8KR68
Q9FLC8
P15735
O43123
P60757
P60752
P92979
P86276
P58215
Q95YI4
Q7WY78
P68567
Q58409
Q4KLZ6
Q58407
O22043
Q9KUA9
Q0S7V5
P31466
K4JH65
P41409
P0A9X1
P0AF03
Q63342
P37956
P41407
P37773
D7PHZ7
D7PHZ6
D7PHZ5
P72743
B3A0L4
D7PHZ2
Q9RR32
D7PHZ9
D7PHZ8
I6Y3U6
O52380
P0AEE5
P37064
P75919
P82808
P75913
Q2FZ58
C7AU21
Q6LXF7
P11413
P11412
P11411
Q46UZ9
P48635
Q7A827
P63228
Q16134
P20973
P37602
P37600
P80404
P77211
Q42577
P77214
P15922
P77218
P69937
Q97U96
Q13564
K0E678
Q8NE62
P49728
O80448
P05030
O50039
A2SP37
Q12715
Q9ST03
Q8KBL0
P9WJL5
Q9H2M3
P9WJL7
A9JPE0
Q8L7W5
P9WJL3
A0A0E3X4Z4
O82796
P0ACB0
P0ACB2
P0ACB4
Q5JIZ8
P0ADV9
Q5JIZ7
P0ADV1
Q0ZQ42
P49723
Q9ZTA1
Q7WX97
Q6STM1
Q8RJ47
A3SN06
A2SL81
Q9L547
P21147
O15294
Q8RBC8
O65017
Q7X5M3
P71323
O26518
Q01159
Q8KCJ6
Q92316
P26646
Q94IE3
Q0ZQ41
P0ABD3
P21499
P00509
P0ABD5
P00503
P00507
P00505
P38179
Q8NTI8
B6D9L5
Q46865
C5Y4Z2
P53965
A0A0D5YF67
D4Z909
Q39128
O49434
O22213
P35354
P0C0K3
P60560
O52646
Q940Z5
Q6XBI6
Q6XBI7
Q31LJ0
Q8NFU3
Q6XBI8
Q6XBI9
O51800
Q8NFU5
P44979
E1ZTE9
P43616
Q5P5K2
P13254
Q91ZW6
A6XNE6
Q12KT8
A6XNE5
Q92569
O27026
A2DLU8
Q92562
O75213
P0AEI6
P57084
P0AEI4
O53370
P0AEI1
Q8H3P9
I6YCA3
O07899
O07898
Q7MAP2
O52645
P75167
P77181
P72351
L7T8H2
P72355
Q4PD40
Q83WC4
P08312
Q9L8R8
P08319
Q83XM3
I3V6A8
P32377
P32371
P32370
O80944
F2YTN4
P32378
I3V6A7
P07991
Q59I43
B2KPR3
Q59I44
Q58369
Q86X52
Q53712
O07406
Q9SYM5
Q52LJ0
Q3T6E2
Q51973
Q9RA18
Q51976
Q51975
Q51974
Q51979
Q51978
Q4VNK0
Q9AQH6
Q988D6
Q9LQ68
Q96RQ3
P36076
P33770
A0A096ZED0
A0A0H2X4B4
P33775
P9WNW7
P40874
P40873
P40871
P21964
P0AAM1
Q94AX4
Q9JN36
P31867
P0DKI0
P07339
Q1KSC6
Q1KSC5
Q1KSC4
Q9XFS9
A0A0F7RJ52
P10605
Q03148
P33599
Q03144
P33594
P33593
O25130
P33591
P16467
P02932
Q43503
O58523
A0A0M3WRK0
M4HXR6
P15279
F4BUV0
W5QJZ5
P50465
O86224
P0C0V0
Q8NK50
O06913
O06912
P56100
O06914
P37295
P37291
G4T024
P37292
P0AE16
P37299
P0AE12
Q936T2
Q6NPM8
S0DRI1
P39525
A0A0D3RBW0
D4Q9Z4
D4Q9Z5
P0A0C2
Q96C23
Q9P2R7
Q0HWI9
M1T1K2
M1T1K4
P38218
Q9BTU6
Q6XXZ2
L8EUQ6
L8EUQ0
H1AAP2
Q0MRG5
P17735
Q8BP74
A8R7D1
Q2FZP8
P13604
Q9S738
P18843
Q2FZP7
O26652
Q5I6B5
Q00722
Q8NQD1
P23141
Q9R4N2
Q9R4N3
Q9LEM9
Q9LTG0
P76264
O53561
Q977U7
P55818
P0A7C6
Q96255
Q8GCH2
Q31LX1
O32028
P08078
P75390
Q99034
O48935
P08077
Q8TCG2
A4F7N7
Q9XCW3
Q684J7
Q9XCW4
P32567
Q67ZM7
Q8KTD8
G0KYB2
E1YD54
A7Z0T2
A0A068Q609
P0DJN9
M1RY63
Q04396
Q84HI0
Q84HI6
Q8VUT0
P43577
B0K2C3
Q70JA7
P42738
A2SY66
P42220
Q5H782
Q838K1
Q93XP7
Q04644
Q846U4
Q846U5
Q846U6
P76113
P76112
P18159
P26439
P94890
Q55500
O33958
O33957
O33956
Q6UWW8
O33954
Q0PQX5
Q8KTD6
P68767
Q4G2T2
Q4G2T3
O48666
O43103
P19409
A9IE89
Q9ZV05
Q46079
Q9C6I4
Q8KPP0
P53554
P53555
P53559
A3KLL4
P77589
P49193
Q58178
Q9SVQ1
Q17SB2
E7FHF1
I6YFL7
Q8E8S0
E7FHF8
O14975
O27211
O93658
P0A9V8
P09848
P21215
O81971
P0A9V1
P49448
Q8IZV5
Q05514
P49441
Q8KPP3
P37349
Q55013
Q5NJY7
Q99497
P31825
Q01594
Q9XBL5
Q8KIC8
F6H9N6
Q9M2E2
Q75T30
B0L7F0
P37340
Q9SLG2
Q54795
G0Y286
G0Y287
A9EDP4
P0AER5
P0AER3
P0AER0
P63208
P14407
P0AER8
O24743
I0IVM9
A2PZP3
Q9LTX3
Q57346
B1Q3F6
P77239
Q42599
Q58820
Q9XC59
P77231
P61517
Q9S7E9
Q70KE5
D3V9Q6
O66182
O66183
O66186
Q9S7E4
D5KXD2
Q9NY97
P0AFV4
Q9BWL4
P27505
Q15JF8
D7P5V0
Q9L4P3
H1ZZB1
H1ZZB0
H1ZZB2
Q8VRG6
Q06893
P40487
P24557
Q9ZHQ1
P33908
Q4H4E9
Q9ZHQ4
O00095
F2K0Z1
P33907
P0ACD8
P17117
P05189
P0ADP0
P0ADP5
P0ACD4
A0A1X9WEP1
O24915
P31057
P21801
P65457
O54199
C4TP07
P21169
C4TP02
C4TP01
Q44563
Q7BQ69
P21164
P21165
C4TP08
A9WGS0
Q6WRY5
A0A0C5QH30
Q0K7F8
P0A8M0
Q5AVY9
Q40061
P70473
P24193
P35196
V5YXI5
P24197
P16686
Q2FVE4
Q2FVE5
Q2FVE6
Q2YIQ1
P0ABJ9
Q46845
O67322
P0ABJ6
P0ABJ1
P0ABJ3
Q2YIQ7
P39887
O34664
O34667
A9WEI4
P39888
P39889
Q9SD85
A4KAG7
Q59160
Q9FVK0
Q4WR16
A4KAG8
Q39103
Q9JHW2
P93703
Q9CAY3
P42504
Q92R20
Q6J228
Q9NRR6
F8J3H2
P32974
V5TES5
Q7WST1
Q9SBR3
Q67XD9
P43635
P43636
P49294
Q9UWH3
Q9UWH6
P23331
Q8LPK5
Q8GXC4
Q9SZC9
Q9F1X6
P76524
Q9CA28
A0A081RAW0
P69054
A6Y9S5
Q9SGH6
Q9RMX8
P37765
P08331
Q8DPD9
Q8DPD8
P08337
Q8DPD7
Q8DPD6
Q7BSH1
Q7BSH0
P28997
O59841
P32356
P32353
P32352
Q5UE93
A9WC39
A1XWY7
Q9FX32
Q2BN77
A3LZU9
O95544
D2KI28
A3LZU7
Q05893
A2QEQ6
Q99570
B8XVS6
P22061
P37623
P38840
B0KJL7
Q8RHX7
Q8RHX4
Q8RHX3
A0A1D8PM94
A2YQ58
B5GVK2
Q9LQ04
Q8RHX8
Q8DVV3
P33026
Q9S3V1
P33025
P33022
P9WGC5
P33752
P9WGC7
P0AAK1
P60864
P19367
Q02189
Q9LXX5
Q12120
P19573
P19733
Q42290
P56892
Q8D8D2
P04951
P04956
P23673
Q8PDQ6
O77475
Q9BRA0
Q01984
P84887
Q9X1I0
Q9XB60
P84888
D3RNN6
D3KYA0
A6P6V9
Q52463
P15291
P62090
P0CI31
P9WNU7
Q9UT27
Q97VG1
A0A0B3VZB9
P50442
P50336
P9WNU9
P0AB87
D2IKP5
P0AB83
D2IKP1
D2IKP2
P0AB80
Q56778
Q56779
P0AB89
M1SMM3
Q9HZC6
Q9XGI7
M1SMM6
P37906
P0AE74
P37902
Q47157
P77397
Q7WSJ4
Q9UUZ3
P77398
P77399
P23857
Q06402
Q03161
P13444
Q9WYB1
Q06408
Q9KID0
M1EY73
Q2M3T9
P29812
Q83WE9
Q9LVW3
A0A0H0Y814
Q9XBQ8
Q31NL7
Q6RKB1
P0A6W9
Q04809
P0A6W3
P0A6W0
Q59420
O25370
P69741
O60243
Q9S750
Q9LIR6
P13196
C5MRT8
O30916
E1YIX0
Q8LEA2
Q84KZ1
Q84KZ3
P56780
P51178
O48958
Q3ZFI7
Q93WL4
Q8TE04
A0A0H3KDU5
P31551
A0A024FR43
H2K883
Q9ZE77
Q92935
Q9HSN0
Q31RW8
Q9L9U8
Q9SBQ8
D2KTY2
D2KTY3
D2KTY0
P15454
A1BDQ4
P76423
P76422
Q8EEB1
Q8EEB0
Q8VY26
Q7L5A8
Q8VP44
O94197
P00330
P00331
P00333
P00335
P07813
Q9NGX9
Q6Z5J6
O27184
P53204
B6DQK4
Q9Z3G1
Q5W245
Q9FV25
P96499
P92939
P9WN69
E9RAH5
P9WN67
P92933
P92935
O66188
P45562
P45563
P42712
Q5JJC1
P45568
Q94A94
Q7CI41
P0CE44
Q6BF16
Q6BF17
Q2MFV9
P75806
B0R5X6
B0R5X4
P0A9T0
Q471H8
Q7SIE1
P39708
O75003
Q55329
Q31PI7
P0AFF4
Q9SZ30
Q8IWT0
P75959
A0A076ES55
P75954
Q57580
P0AF43
A0A1J6PEY0
Q42605
A0A059WLZ7
D8RNZ9
Q9ZFE7
Q8NKT5
Q8NKT6
P45382
P98183
Q53692
Q00914
Q13423
O27233
O27232
P0AEP3
O27236
P0AEP7
P0AEP9
F4IV16
O23973
Q47098
Q96GG9
O52251
O52250
Q58806
P13859
Q8RSQ2
D4AK45
P36999
B9GRL5
P48735
P48736
D8SAZ5
Q8NHP1
P03014
P15043
Q82WJ0
Q82WJ1
P69425
P37028
Q56185
Q9UY84
P50163
Q845J2
Q845J6
Q845J4
Q8U1R6
P56761
P48651
Q185C5
Q6QVT6
P0ADR6
P0ADR8
P22868
P22869
Q99UL1
A1XI30
A1XI31
A2QM95
P22864
P22867
Q5VYX0
S0DLN5
O77206
Q4AEC6
P18417
P31077
P31076
P31075
P21108
Q9SQT8
P23102
Q9HLX1
P0AA43
O26803
O26802
P0AA47
Q9Y663
Q9Y662
K0I986
Q9NQR9
P23106
P14882
P00950
P0ABH7
Q88J55
Q88J56
Q88J57
P35172
Q86WU2
P0ABH9
Q08637
A4SF06
Q37145
Q9KJY8
P47154
C8WJW0
P39315
B2BE69
Q9H3L0
P43439
P43436
P43437
E1VB58
Q9ZI64
Q9MAM3
Q7XJ98
P27621
P27620
P27623
Q9ZSZ7
Q5M819
P14262
P06197
P77619
A5YM72
P76632
Q08307
Q08303
O64765
P02753
Q9NTN0
O82834
P08684
P08686
Q8YY76
D4GTS4
P0AEM9
O32755
Q9C447
Q9FNN5
P0AEM0
A4YEH9
P0A993
P0A991
P0A996
Q9FA42
Q9FA41
P0A998
Q6P6M7
F8S1H3
F4Y9J0
F4Y9J1
P14679
Q83WG2
Q83WG3
Q83WG6
P14671
Q83WG4
P14673
P0A7Z4
P0A7Z0
Q83V26
Q8KQE8
Q8KQE9
Q8KQE6
Q8KQE7
O05514
Q4KM86
Q6QNI4
Q9UWN2
P26572
Q5C9L3
Q9TRC7
P97608
Q95078
Q02218
P09030
Q54734
Q82IY9
O09171
Q6BDY0
Q8NRB3
Q82IY4
Q82IY7
Q82IY3
Q5XIE6
Q9GPQ4
P82678
P60472
P0DJQ7
Q0ZQ46
P0CY53
P0DJQ3
P0CY54
Q43725
P21921
P21922
P74498
Q58DM8
Q8L5B7
A6BM85
P0AAI9
P0AAI3
P0AAI1
P0AAI5
P15104
Q9Z373
Q4JHG3
O22616
Q8VUC7
P0AG76
Q59545
Q56575
D2D5G4
P0AG78
Q52400
Q93YW7
P07014
Q7M0V2
E0U4W1
Q9LPG6
Q9P2E5
P0AE52
Q0S7M1
Q8L0M8
Q0S817
Q0S816
Q0S815
Q0S811
Q5IW35
Q5IW34
Q5IW36
Q936X3
Q936X2
Q5IW32
Q57302
P75728
Q5IW39
Q5IW38
O84736
Q96KS0
P49714
P77374
Q9M0D7
Q9LK29
P23871
P23872
Q9SWR3
P23876
O25175
Q8EJI1
Q08IT1
Q00458
P11915
Q00456
Q00457
P29745
Q45829
Q842E2
A3MSP1
P17770
Q9RFD5
Q9X839
B3EL09
Q9LVY2
P0A6U8
Q31NJ3
Q04828
Q31NJ5
Q31NJ4
Q8RQP9
B9W4V6
S0DL65
P0A6U3
P0A6U5
Q93FB2
P56418
Q8Y489
K4JEX9
A5HZW4
A0A1L1VVZ8
A5HZW2
A5HZW1
A5HZW0
P38972
Q5SIJ1
A0A1L1VVZ0
Q8RL63
Q15067
B1XMM6
B1XMM5
Q8RL62
K0I977
Q9VGH1
Q08686
P32528
B2ZP83
E8MF12
Q2FYL6
Q9FZ87
Q9FZ80
P0ABT8
P51993
P24521
P96927
M1W5Z7
P16690
P16691
P16692
Q9ZB26
Q9BVC5
P74134
Q7YTA9
P76407
B6D1N4
B6D1N6
P32784
Q04179
Q04178
P53045
Q31L83
P00352
P00350
Q31RM7
Q84FL5
P10346
P72140
Q9R6X4
Q9JLJ3
P16966
P56069
Q1MW86
O43148
Q9AU09
P26475
P26474
Q50327
Q50326
Q50329
Q50328
P53594
P53595
P53597
O34514
A0A023GPI5
P9WN43
Q58130
P9WN45
C0LTL9
Q9KTV9
P93067
C0LTL7
P45541
P45543
P37941
Q7SIG5
Q841L0
Q9GZT4
A0A068MXX8
P0A879
O64405
O64404
Q3J4I7
F4K0E8
Q6TAS3
Q8IWV7
P36204
P11349
P19113
O27434
Q83V25
Q9AJU2
Q9AJU0
Q9AJU1
O24164
Q8RVK9
Q0JH50
P23608
Q9MBC1
Q9MA79
A0A0A1GKA2
Q8R4X1
P39643
Q53672
Q53673
Q53671
P0AEV9
Q0GXS3
Q10252
G3XD61
Q96GA7
A0Q641
P43341
D7PI19
D7PI18
Q38893
Q97U35
Q58860
D7PI17
D7PI16
D7PI15
D7PI14
A0R5N0
A0R5N1
Q5BLE6
P73054
P12694
P12691
Q9LZ31
C6Y1N7
P31928
P37002
Q6RIB1
Q8YK97
Q9RR31
Q9RR30
Q9UR19
Q9AF95
P50107
P9WJF1
F9UT68
Q8L493
P48637
E0D7H6
F9UT67
Q9SKK4
P19801
A0A0X8IUP7
P22806
Q1KLZ2
Q1KLZ1
P19808
P38067
P38066
Q12718
O81862
Q9Z417
Q0VHD6
Q9RRD7
Q5P8S8
P13259
Q5P8S7
Q5P8S6
Q5P8S1
Q5P8S3
Q5P8S2
Q6L619
P66948
P29356
Q9XC67
Q55222
Q9VD30
W7MT28
O87833
Q9P9M8
O87831
O87830
P0ABN1
P0ABN5
P0ABN9
P27810
Q3YAT3
Q9SQ67
Q3YAT5
Q86YH6
P77585
A0A0X1KHF9
P49902
P77581
P77580
Q5VJ90
Q830W0
Q9FMV7
Q8TIB9
Q9FMV1
Q7XR61
A0A0H3FQ94
Q33862
Q54116
Q00667
L7JD56
Q8DPI5
Q9F835
Q70KH9
P05181
F8J3D9
Q55034
Q9F833
P30085
E4WCW8
E4WCW9
Q40062
K4CL08
Q40060
K4JV76
E4WCW6
E4WCW7
E4WCW5
Q8L1D5
P13221
Q6KF78
Q6KF77
Q7X9C2
A9WC36
A9WC35
A9WC34
Q6IBG4
P30863
O49523
P30860
I4AY86
P75189
P20388
P05458
A4YEN2
Q4VSI6
S0EHD6
Q9CA61
Q9CA67
Q31NU0
P06744
Q0ILK1
Q83WE6
Q83WE7
Q83WE1
P08373
Q7Y1B7
Q83WE8
Q8L0X3
Q43295
A3RF67
Q9R9Y8
P32316
L8EVJ1
P32318
A0A097SRH9
P41814
I3PB36
P22392
Q9XBU5
Q5QGZ8
P15559
P43676
Q5W249
Q8L0X8
Q5W247
Q5W246
Q46M62
Q5W242
P93306
P76216
P76217
P76215
P38888
A4YIE3
Q9L9F2
G8G2V6
P19636
B1NF20
Q43870
P16118
Q9XDN0
Q9XDN1
Q9FH76
P15121
Q9XDN5
W0LV34
E3UTU0
Q16816
Q9RBF6
A6P4T5
O52063
Q58653
Q9UBF8
Q57174
O43772
P0AG11
Q0S9Y3
B0FRF9
P0AG16
P76316
P0AG18
Q8TKU7
Q8TKU6
Q7CQM9
A0A068Q7V0
A8J287
P25553
P25552
P36543
P36010
A0A075BSX9
P36013
P36548
Q9Y5K8
Q6M1B3
P37940
B1YBY5
P37942
P37769
Q9NR34
D3UAK7
O34453
Q9LCU8
Q9LCU9
D4YFM2
O52682
O52683
O52681
D1BP27
D1BP26
P77357
Q5V0X0
P11667
P11663
P69834
Q8TIB8
P69831
Q9KIH9
A9BQX8
P12310
Q2PBY6
P30084
Q1IAK8
P0A6S7
Q9R4A1
Q51793
Q9XBU4
Q51791
A0A222FYV4
B6ZKM3
P11914
P40506
A9ZM30
Q0X0C1
P69783
Q84BY1
P69786
Q9I1L4
Q9I1L5
A0A097ZPC9
G3XCP9
Q945K7
Q9AIK2
Q9I993
Q9L9F8
Q8GRC8
P31688
P31134
P31135
P31133
P40332
G0L322
Q9HZJ3
Q4D3W2
P0AFM2
P43127
Q6WIG0
Q50330
Q0WRJ2
A0A1S6M1M2
P39109
P39106
P39105
Q5SL82
Q0VH44
Q0VH42
O81094
P32559
P31350
P18200
Q9ES38
Q9ZHJ6
Q9ZHJ7
O31440
Q5LT34
Q8GV52
Q5LT33
Q5LT32
Q01433
P17898
P62695
P62694
P76173
O89049
P0AC62
P22250
P22256
P76175
Q7MSJ8
F8G0P2
P39328
Q9LMR3
Q59028
Q4P3F1
P00374
P00804
P00805
P00370
P9WIM5
P00372
P52197
Q8KHE4
P0A010
Q9WXE6
P0A8T1
P49137
P29728
P0A8T7
Q8TUC0
Q88J58
F9USS9
P23256
Q6IVK8
Q8E8I7
Q9KJ21
Q9KJ20
Q9KJ22
P75245
P20048
Q70IY0
Q70IY1
Q0P9C9
Q0P9C8
P0A9P9
Q8GS16
P0A9P4
Q9WXJ9
P0A9P0
Q0P9C7
Q0P9C6
Q8IZP7
P38605
Q4W5U9
P68699
B6F209
Q8CWU2
Q9ZS34
Q0GR04
O32717
Q5W9E3
Q6LXN3
Q6LXN4
P04694
P16099
Q53658
P9WPV9
P11498
Q45076
Q45075
O07565
O07564
P11491
O07566
P0AET8
Q53657
B0L7E8
A0A0B5A051
Q9KHK9
A0A0A8J873
P40974
P40970
P37661
Q57329
Q706U0
P48775
P36957
O87690
O52214
P0AFP9
P73033
P0AFP4
B2DFG5
B6CWI9
B6CWI8
P37573
Q60GU1
Q49135
Q9SKU8
Q9HFA4
A8HS14
Q0JFI2
P9WQP1
P9WQP7
P37680
P37686
P37685
P37689
P22822
P09972
Q9XF91
P09979
B1AAM3
Q4KKM8
Q7Z9M7
B1N1A3
B5UAE1
Q7Z9M8
Q4KKM7
P0AD57
F2K079
P47999
P47998
Q9AVQ1
P50126
P50120
D7P5X0
Q84VW9
Q96WT2
Q969W0
P51659
F3Y661
F3Y662
Q5JI38
P30744
P0ABL8
O60427
P0ABL3
P30748
G3XCW9
P27830
P27832
P27833
P27836
P43435
P39358
P95029
Q9HTJ2
Q8NTA6
Q93P60
Q9M9Y8
Q9M336
P25087
G8C421
P49961
Q93HS5
Q8DNL5
P25080
Q7XAK1
P71503
P15496
Q9NZJ6
Q1Q4F5
P22259
J7FIP6
P75476
O08375
O08374
P14225
P14224
O49347
O49342
Q10472
Q6VAA6
P25889
Q9ZN84
Q8SAG8
P77650
P9WFJ9
Q5SLG2
E1YEG1
A0A7Z3
Q9NTJ5
P08171
P00491
Q05936
P08178
P00492
P32483
P52073
P52074
Q7X9A9
Q92WA4
Q92PC8
Q92WA3
D4GSF3
Q9FYC4
A7Z0T3
P0A953
Q9AR04
P0A951
O23300
P17424
Q10723
P0A959
Q38814
Q84TC2
A9WC41
P92276
P92277
P43478
E7FI45
E7FI44
B1N7H0
P08397
P08394
P08395
P32669
P32664
P32662
Q9UWR6
Q9UWR7
Q8F4E6
Q4QY91
Q7LYW5
Q9LS02
Q9FX97
P24752
P77908
Q02251
Q86Z65
Q70G32
P76234
Q93WU1
Q9R920
O43488
P23630
P26286
P26281
P26283
P00634
Q9JII6
P9WMW7
A5N3I5
O22436
O22434
C6K8M0
Q5UXA4
Q8E370
P17411
Q8E372
Q9FJV8
P00803
Q16836
Q9S9P6
Q16831
P16538
Q9Z330
C9K2Q3
Q8GAI3
Q47317
P49366
Q84V25
P04642
Q58673
K0I7Q2
P0AG38
E9NSU2
E1CIA4
E9JFX9
O04046
Q5M6Q8
P0AG34
A0A0A1HA03
B4YPU5
Q9S3L0
Q9ANX4
Q2FYK7
P36566
P36561
P37749
P37747
P37746
P37745
K1GBR8
P49753
P77334
P0A9M8
O74725
Q5KTR2
P0A9M5
F8QQ74
P0A9M2
P0A9M0
P23830
Q9XF20
F8UL80
Q8DR19
Q06319
Q8L3X9
J7TF92
P06721
P06720
Q6LXQ2
Q703X2
P77488
P77489
Q97UA1
Q97UA0
P55097
A0A075X9E9
P0A6Q6
P0A6Q3
Q66SY0
Q30W71
S0ASL9
P40566
Q16MV5
U5NE19
Q949U1
Q9NR19
B9H4D5
Q8KQF0
Q8RM02
O95260
Q8RM04
Q56RZ1
B7ZDM2
P31112
P31114
Q12283
A0KYQ6
A0KYQ7
P48408
P10798
P10797
P10796
P10795
F2JXJ3
P38298
A9ZPI0
P0AFK9
P29704
P94522
P29255
P26970
P38567
P0AFK4
P31373
P39160
P39163
Q93063
P09169
Q56ZZ7
O81077
O30520
S0DRW4
Q6W5R4
Q9KIC5
Q6IVK5
Q84HQ2
P9WJ93
O94219
Q5LT18
O34926
Q9C788
Q52008
B9U5L8
P31549
P53004
Q91XV4
P53008
Q6XPU3
D2KAT1
P9WIK7
P9WIK5
Q59007
A4KDP1
P9WIK9
C9V488
Q675L6
Q675L5
Q675L4
Q675L3
Q675L2
Q675L1
Q675L0
Q9KIC9
Q48924
P32874
P32875
P46637
P0A8V2
P0A8V0
Q9LVR1
P9WN09
P35475
P60174
Q8Y8H3
P9WN03
P23238
E7FHN9
P23230
A0A0N9HP11
Q9RBP2
P23234
Q3C1D3
Q5W726
O68500
B1XKC6
P72235
Q6N8W6
Q6N8W7
Q3J4E3
Q7SIC2
Q8RTY6
Q9RTA9
P82715
Q05599
A3C4S4
P0DP69
Q05590
Q05591
Q05592
Q05593
Q05597
Q8L8L7
Q69G22
Q9ZPI5
Q93K97
Q9ZPI6
O07608
Q8N6Z6
Q9I5R6
O31526
O31527
O31521
A1R2G2
O95461
Q9GZZ1
Q8GSJ1
P42804
P9WPP3
P9WPP1
P9WPP7
Q9H4A9
P67444
G3XD23
P05706
P0AEZ7
Q93TJ5
P0AEZ1
Q6N3F1
Q6N3F3
Q9XHM5
A0A0H3C6H6
Q93100
P36979
Q9BWD1
P33182
G3KIM7
P07254
P07255
P07250
G3KIM6
Q8NBK3
P16096
G3KIM5
P07258
P07259
Q9LUD9
B1XJ59
P39040
P15684
P33232
P33231
Q9SMB7
P9WQN9
Q9V0Q0
B0LDU5
Q56691
P19841
Q06244
P0ADX9
P0AF98
Q43135
P44094
B5U8R1
Q53596
P62158
Q9D4B1
D2Z024
D2Z025
D2Z026
D2Z027
D2Z028
O27170
Q8N1G2
Q333V6
Q333V1
P0AD70
P07623
P58710
A0A076N4W8
P37180
P58718
A3SC37
Q00770
Q9AEQ0
Q1W3E6
P0ABR5
P0ABR7
Q9BZQ4
Q4KCY4
Q4KCY5
D5KB59
D5KB58
Q4KCY8
Q4KCY9
D5KB55
D5KB54
Q8RM03
D5KB52
D5KB51
Q93V61
Q3IYM5
Q941L0
Q9CFW7
E5AX04
P17055
P17054
P27859
M1JEK6
P17050
P0A2H1
P17052
P39377
P17059
P39371
Q15I92
Q8DAR7
Q9M643
O23390
P23003
Q9NRZ7
Q9NRZ5
Q4W8A9
O08353
O08354
P77672
P77671
Q4VKV0
Q96T66
P77674
Q51371
Q53U21
P03965
O87871
O87877
O87876
P03962
O87874
A7ISW5
Q40024
M1W0X9
O32129
A0A1L5BUG8
Q9L9D7
M1T9M9
P08622
O87725
P19319
P0A769
P17443
F8G0M1
P32469
P17444
P17445
Q9HWG4
A8KNE2
P32461
Q9HWG3
P32462
O49499
Q58I85
Q9RA19
Q2WCM0
P06282
Q8KAN1
P21695
P46139
O15327
P43455
P46136
P0ABF6
Q38833
Q9FVC3
Q9FVC2
Q92QY5
Q99643
L8EVF8
Q8L6F0
Q8N9L9
Q98KQ8
Q01574
Q04507
P76038
Q188I3
P76037
P22352
Q01578
Q0QFQ2
P09394
P09391
C1FW05
P26512
Q05902
C1DMY3
P74324
Q8LPS1
Q08362
P24009
Q08368
Q6F4N1
Q7X280
Q7X281
Q0P9C5
C1FW08
Q7X284
Q53659
P27202
Q9LSY6
Q45070
P76251
B6V3B9
Q9LSY9
P76254
Q84SM8
P0A4Q0
Q9YBL2
Q9FI76
Q1H537
O27628
O43426
Q6M0D0
Q6M0D1
Q4VKU9
Q53U18
Q53U15
Q59127
Q53U13
P52209
Q53U11
Q53U10
Q16851
Q16850
Q16854
P0A208
A5HUN0
Q50538
Q50539
Q84IP8
P56817
C1FW07
P56815
P56810
Q8TCT1
Q9LW27
C1FW06
Q8ZLQ8
Q9X1A5
Q941S0
Q31KG3
Q5D0X5
Q5D0X6
Q5D0X3
P25519
Q9SIV0
Q8WUK0
P77072
C6WFL3
P25516
O25284
Q94AR8
C5YZM6
P16658
P11511
P20581
P20580
P75782
Q5IW57
B3TKC8
Q93Y23
C8WMP0
P0A9K9
S0EE80
P61431
S0EE84
Q9MB77
P69874
Q7DN73
Q9MB78
P0AGM7
P27680
P0AGM9
Q9BZ23
A5F5Y3
P12352
P75851
P12356
P06709
P40549
P06700
Q502X7
O35013
P0C8Y0
B8M9K5
P22985
A0A068BGA5
Q3E840
Q3V5L5
Q9I1H3
Q9I1H0
Q06597
Q9LLL6
Q4KJP1
Q31LR3
Q31LR2
B2NID7
P0AFI5
P0AFI7
P0AFI0
Q43309
Q43307
P48421
P48422
P83513
P48426
Q9Y2Z9
Q01813
Q9Y2Z2
Q07356
Q9F131
P13006
Q6W5P7
Q6W5P6
Q6W5P5
P13001
Q6W5P9
Q6W5P8
P13009
P09148
Q03529
Q06147
O25883
P09147
Q5T2R2
P0AC16
Q5MQ84
Q2EMT4
Q9BT40
P16635
A9CK30
O05895
D1H0J1
D1H0J0
E0TWR6
E0TWR7
Q0P8X2
E0TWR9
Q396C9
P38954
Q96AB6
Q5LRT0
B0EXJ8
Q9ZAK2
Q6NC04
P32714
F4HVY0
Q9Y5L3
Q9FBI2
Q5PT43
Q31QE7
Q9HYU3
Q071N0
P39639
P39638
Q31QE1
P43155
P0A862
Q9UTM9
P46309
Q8YZ70
P23219
Q46YU2
P42799
Q9HKS9
Q93XJ2
Q939Q5
Q939Q4
O89000
P17858
P28635
P28634
P17854
P28638
Q939Q9
Q939Q8
Q9A7T8
Q8VS01
Q147X3
Q9SDW9
P25744
P25745
P25740
Q9A7T5
Q9A7T6
P14176
P14175
P14173
P34163
P54887
P54886
Q9UI12
P15877
D4HRJ1
O27105
Q9XYS5
A0A1L1VZ44
O27106
Q9ZPK2
Q6WG30
Q5ZXI0
Q58085
Q14642
E7DN64
E7DN63
Q57502
P11183
P11182
Q2V0W1
Q947B7
Q6PFW1
P0AEX9
Q6QHB9
P32143
P32140
P0AEX3
G3XD01
P0AEX7
I6X5U4
S6BVH5
B1VTI5
S6BVH1
Q59J82
P40939
O66128
O66129
A0A1V0ELS9
Q58881
O66127
Q64380
P9WQP3
Q73RR4
P48611
Q9UHK6
Q2VPK5
P07275
P07277
D5JWB3
Q58GE8
P26093
Q4W1X2
Q9ZGI4
Q9ZGI5
Q9ZGI2
Q9ZGI3
Q9ZGI1
P22570
Q59072
O94753
A0JC76
Q0P8G4
Q7G193
Q7G192
P09938
Q7DDU0
P09933
P80489
D5JBX1
Q2RJ84
Q2RJ83
Q2RJ82
Q2RJ81
Q2RJ80
Q9NXB9
P80193
Q9QXT3
Q9FHR8
P07649
Q12612
Q2NM15
C0JRZ9
P0A731
O48652
L0T647
Q9V0S7
P13587
A4D126
P22320
E2JA31
E2JA30
E2JA33
P0ABP8
P0ABP3
Q9F7D8
Q9F7D7
Q9F0P1
A0A0H3WJF8
P39829
H8L901
P69826
P14618
Q55455
Q9FMP3
P39823
Q9EX73
Q06121
Q500U8
Q06128
Q06129
A0A0M3WP24
Q940V4
Q88FY4
Q88FY5
A9ZMZ1
A9ZMZ0
Q88FY2
Q88FY3
Q7WTT9
E8MGH9
P14913
Q51548
Q9M591
A0R758
K4JV60
P55912
P0A725
P77690
Q8KF75
P9WKZ1
O87899
O87898
Q59274
O87897
O87896
Q4KKM6
Q59273
O53622
O07855
O07854
Q6Q8A5
K4L7X3
I7GSQ8
P30178
A6N7G2
Q9LVD6
Q8GI18
A3DD46
O95989
P06733
P00936
O15342
A0R610
P43304
Q38854
P24240
P92507
A0A0E3SY51
P32622
P00935
I6XD69
Q9ZUX4
Q9SXW5
Q9ZUX1
Q9RC92
A9FDB7
P0CZ23
P15531
P76015
Q2PGC4
P15538
P06738
Q4WZ70
Q0PCR8
Q2HEW1
Q57751
Q5P5G4
Q5P5G5
Q5P5G6
Q42967
C6WB29
Q5P5G2
Q5P5G3
Q9L9F7
Q9L9F6
Q9L9F5
P21549
P00459
P00458
Q08388
Q9L9F0
Q38932
F4JW83
D2D3B6
P00450
Q9L9F9
P00452
P22083
Q868I8
Q46337
P76273
Q868I5
Q868I7
P08956
B3QHD1
P40149
I6TCK3
Q93TQ1
Q8LL69
Q9X0C6
Q7BUE1
A0A0A1GNF2
P00183
Q9FPW3
Q44249
A0A097ZPG2
Q9RPT1
P45464
Q9T0K1
Q38707
A2BD24
P54965
A0A097SRF0
A0A097SRF7
P41302
I1TEM3
I1TEM1
P93285
O31667
O31666
O31665
O31664
B0FYK7
Q39032
P49327
Q16873
Q16877
P46849
Q16875
D4GP40
P56838
P56839
A0QTV3
Q5JHF1
O75348
O64810
O64811
A4F5C1
Q8H2B5
Q8H2B4
Q95748
P30952
Q9SHH6
Q9UDR5
P20839
O69449
P25536
P72575
P25534
Q1QWN6
P25539
P72578
Q9LHN8
Q94AL6
Q8L5J7
P71847
P22255
A0A023JQ26
A0A023JQ27
P09833
P0A9I8
Q93Y07
Q57261
Q9FQ26
Q42496
B0TBI8
Q8H8T0
A0A0H5B816
P69856
Q9SI93
Q9ANR5
Q7FAE1
P0A6M4
B1VN94
O29786
O02623
P05852
A4UVY2
A4UVY1
A0A0A7HB61
P40215
Q4X158
P38703
Q9ZFV4
Q9ZFV5
Q5JEQ6
V5TDZ4
P37702
P30745
Q9P4W2
I7HHD0
P37256
Q8KDS7
Q79FX6
Q96H96
D3WZ86
P31153
A3DC29
Q9C1I4
Q8GY88
P48449
Q9SM02
P0AFG8
Q08975
Q194R4
Q11203
Q194R1
P0AFG3
Q194R3
Q11206
P30749
P09126
Q975C8
P18263
P13029
P83772
C4NF90
C4NF91
P56580
P56584
P56588
Q9FMT1
P0AC38
Q5LT52
P0AC35
P0AC33
Q43257
Q12400
E6UIS7
C5IGQ5
C5IGQ3
O34215
Q6PQK2
F2JUE7
O34213
O33999
P39359
Q8LIL0
P0DMP6
O33997
O33996
P00864
Q66PX9
P00861
P11880
Q6WRH6
Q96JD6
P11886
E5D2U2
I6NXV7
Q01767
P77737
P77735
P77731
P95747
P95746
P72010
P49155
Q70T30
P08293
Q00017
P0CF99
P08294
Q9LZJ3
Q00019
H2ER43
A9ZPH9
P17872
P22102
P0AFL3
P02931
Q9M9B4
P0AFL1
Q93XD5
C9K202
O75752
P54575
Q5XF78
Q588Z2
Q2G2L3
Q54273
Q93V86
O53166
Q9KRL4
Q9KRL3
O80840
Q9AXR0
Q9C9W5
Q9C9W4
Q31PC1
F6MZ56
O27120
Q31R02
A4XES9
H9XP47
H2IFE7
P0A8Z0
Q8RXA5
E5KJ96
P9WPL5
Q8IZ52
Q8TD30
P32166
O00089
Q9SZT8
Q9ZRW8
P32169
Q65JG7
Q501D4
P60595
Q471R4
P75473
Q501D8
Q607G3
P36938
Q9JJY3
Q8LSC3
Q8LSC2
P81593
P21829
D6R237
Q6Q4F4
D6R232
P33570
P19734
O27784
D6R239
D6R238
P16050
P21826
Q9UHI5
P53400
A9P830
Q82IY8
P15640
P58329
Q8GSN1
Q7U9T2
Q8GSN5
Q8GSN7
Q8GSN6
Q8GSN8
O24474
O24475
P36649
O22827
P11708
Q9I157
P0AF52
P22557
Q8A1E9
O94777
P09917
Q8W2B7
D4GUA0
P43337
D7R616
D7R617
D7R614
D7R615
Q12732
D7R619
Q58579
Q9LDR4
P51589
Q76I22
Q9NQX3
P9WQ51
A0A0M2AIG6
A7Y9J1
Q9LRZ5
Q9LRZ6
O96437
P30140
O93918
P30147
Q58822
P61081
P13569
O70052
P69441
Q8F3Q1
P38138
Q9KWQ5
O60488
Q2HWK7
Q9KWQ6
P38135
D4GS48
P38137
P39849
P12282
L0D9B6
Q96W92
A5PHD6
P13708
G5CN54
O97438
Q97GY6
Q9EX54
P13703
Q27UB2
Q03393
P14280
Q45695
D0E8I5
O85012
Q12891
P13738
Q54710
Q54711
O00443
A0A0K1TPX5
Q15I90
O00330
B0NC68
P05100
Q582T6
P15259
Q7SCE9
Q9S4K9
P06132
P06134
O74293
Q8LBP4
O74292
Q3EZT0
Q969Y2
A0PJ29
Q8NLZ0
Q9F1T9
P08179
P32427
Q14T82
P31459
A8FNH9
J7FIJ3
Q84TI7
P10549
A2SP20
Q8U0Z4
C7S340
Q9KX73
B9A0M2
A2SP28
Q9CA40
Q5SK28
Q933N0
P22310
P76077
P22314
P76078
Q64HC5
P32397
P32396
Q92QU6
P27796
Q9LAS5
O81770
P53184
Q38M36
Q38M37
Q9RVH4
Q55406
Q38M38
Q38M39
Q71EW5
P08660
Q46916
P16869
P16862
P16861
D9N1A8
P02903
P02904
P0A955
P76290
P76291
P0A799
B3QHB8
Q7KZN9
A7Z0T4
Q40424
Q39232
P0A794
P0A797
Q39231
A0A097ZPE3
A0A097ZPE2
A0A097ZPE0
Q0X0A8
A0A097ZPE4
Q8RNX9
Q0X0A7
A0A097ZPE8
A9CPS8
I0IVM7
Q9RBN7
P00367
H9N289
I0IVM8
D4GP29
D4GP28
Q56840
P0AF18
Q56841
Q39056
Q39055
Q9SHJ3
Q41594
Q05631
Q05632
P27243
P27242
P27241
P27240
Q05823
P27249
P27248
Q8DN12
Q8DN13
P20813
E0Y3X0
P11553
Q13309
P42981
P42982
P23542
Q9P8D7
P71864
E7FH78
Q9XGM8
Q76KX0
A7XRY8
O23324
A7XRY3
Q9HK44
Q9FSC0
Q9I6J9
Q9I6J8
O82782
O24645
P0A9G6
Q9I6J2
P23893
P06959
Q91194
P23895
P40051
Q9SDL7
Q53005
P93834
Q93PS7
Q93PS1
Q93PS2
Q93PS3
P0AGI1
Q45072
Q93PS8
P0AGI4
O50608
B1N7H3
P40582
P50047
P0A6K3
P0A6K1
P0A6K6
C6L7V8
C6L7V9
P33607
P33602
Q1YMS2
P11935
P16267
P21369
A0A0M3WRJ0
P16269
P16268
P74564
Q16878
E3GQB1
P37271
E3GQB3
P37277
B6VP40
Q46E80
Q9FI39
Q8LEU3
Q194P7
Q194P6
Q194P5
Q194P4
P45986
Q194P9
Q194P8
P0AFE8
B3Y522
Q9C450
Q9C451
P0AFE0
P0AA41
A4F7P2
A4F7P3
A4F7P4
A4F7P5
Q9X5C9
Q9VYT0
D7FM80
O58456
Q51718
Q8F4E5
P09104
P09455
P16676
P47051
P16679
P56216
P0AC59
Q12429
P52914
Q52060
P52910
Q93AM1
Q93AM0
P39458
P39988
L8EUS1
A0A1E7MYN1
P39451
P39452
P11875
Q9SC80
Q8GWP5
Q56839
Q8T882
Q48949
P29946
Q56837
Q9X671
Q8NSP6
Q8NSP7
P77712
P83755
P77718
P28012
Q9FKS5
Q08224
P77907
Q96329
Q9L546
Q9L549
Q9L548
Q96323
Q5DK17
Q845J8
Q9F825
Q8TAW6
P17812
P05375
P05374
O85207
O95395
O95394
O95396
A9BEU2
Q988D0
Q988D3
Q988D4
Q9HTZ1
P54511
O32445
Q8NFF5
Q963I9
O80823
O53182
O53181
P42419
O31857
O13297
Q8RR90
Q8RR91
Q9HAY6
E7FL40
E7FL41
P9WPN7
P48268
Q1WIQ6
P19919
O85673
Q3S893
F4ZCI3
O85675
O85674
B0L7F5
P53797
B0L7F7
A5W4F0
F8U969
B0L7F3
O64989
Q8A712
Q8A710
Q8A711
B0L7F8
P53799
Q9L4P4
Q12068
Q86TX2
Q8S7V0
Q8GAJ0
P77425
D2IKP0
Q8H191
P21800
P39058
Q9R921
P07237
Q9FI53
O13437
O24417
Q04446
P12946
Q9LFJ8
A0QXD8
P15029
P0C1D4
P28496
B8XVS7
Q9UNW1
B8XVS5
Q8GSL7
P0AF32
Q56632
P16384
P0ADF8
Q38Q86
Q44258
P19579
P11766
Q52527
Q8PU60
P44569
P50213
P77154
P77150
P36683
P30126
P0AA89
P30125
P0AA84
O81498
P0AA80
P80358
P0AA82
Q06053
P75809
Q9UBQ6
Q9UBQ7
P75804
P34802
Q9RHC9
Q330M9
P9WQH3
A0A1D8PQ07
P69423
P9WQH7
P9WQH5
P69428
Q65CC1
Q06700
Q65CC7
Q06702
Q06703
P9WMW5
G8E4B4
P80357
P77526
B1XIX7
Q51366
P77529
Q57900
Q8NN38
O52833
Q59X88
Q6GZ04
Q51330
Q9LM93
P42390
Q8DVE8
Q6L8K4
P05166
Q9Y2C2
P05165
Q3HTL7
Q49SP3
Q49SP5
Q49SP4
Q49SP7
Q49SP6
Q51508
P55263
A0A059U454
Q9UL12
Q51507
P9WFR9
Q8RL64
Q8RL66
Q8RL61
Q8RL60
Q8NLX9
P9WFR5
P38113
Q93HS4
Q9KWS5
Q9KWS3
Q9KWS2
P0ABT5
B6E2X2
P56680
P38448
H1A981
H1A980
Q10PE7
H1A988
P32400
P18548
P18549
Q4WY82
P31473
P60000
P24203
P24200
Q9FVE8
P24207
P24205
P96845
Q38890
P96843
P78329
A0A0K0PVM5
Q5JD38
Q9JHE3
Q948Q0
Q2PGG3
P46959
Q53641
Q6H3Z6
P76055
Q01519
P76052
P22333
O48916
O33818
Q8J127
I1E425
P53167
Q9AIX6
Q9AIX7
P22319
P00410
P74388
P21589
C9K2Q2
P51019
O43820
G9M9M4
Q8TDP1
Q46938
E7FLQ2
Q9SRZ6
P02929
Q93ZC9
D7F5L6
D7F5L7
P02921
P02920
P02925
P02924
Q39218
Q39219
Q92781
Q41233
P46086
C4MF58
Q51782
Q8TU11
Q9SSB8
Q83WS0
Q0X0C0
P35573
Q5U913
Q9JIA7
Q5U915
Q5U914
P35575
I6UH61
Q99807
Q5SK48
P45425
Q9Z3Q9
O69264
B3RFJ6
Q38AM2
P46883
P05149
P03781
Q5V468
Q5V464
Q5V465
Q5V466
Q5V467
O87692
O87691
Q5V463
Q49136
D5IGG4
P11035
Q9PPA2
P27515
P26178
P26179
P26172
O85057
P26170
P26177
P23522
P23526
P23524
Q97VI4
Q97VI6
Q97VI7
Q57151
K4JV81
A8IT23
Q8TUT1
P92514
P24015
O31620
Q31RF1
Q31RF0
Q31RF3
Q31RF2
Q31RF5
Q31RF4
Q31RF6
Q9WYT0
P06971
P06972
E1XUJ2
P97532
P36871
P0AGK1
Q949R4
P48016
Q8PSE1
Q9AXK7
Q3HNF5
Q9LLR9
Q9UVY5
Q9LC67
P21345
A8IFG7
I3VE77
P33333
C1K2M2
Q12051
Q4WLW8
Q12053
Q4WLW5
D4YYG1
Q4WLW7
Q4WLW6
Q9CDJ2
Q768T4
Q768T5
Q6R7M3
P12008
Q768T2
Q768T3
Q9N6S8
F2XBU9
G3KIM8
Q06063
Q06062
Q9S7X6
Q06069
P0AFC3
P0AFC0
P0AFC7
Q56170
K0E2G4
K9M7R4
C6FFB6
F8G0M2
F8G0M3
F8G0M0
A0A140IL90
F8G0M4
P07149
Q9KIV3
Q9KIV4
P0A6I6
Q9FUW5
P0A6I0
P0A6I3
P0A6I9
Q59550
Q9NVE7
P16659
P0AC75
B7STY1
B7STY2
A2QG68
O58651
P52974
F0KFI5
O14556
F0KFI7
P31663
P31660
P31667
Q5DIV7
Q9LYU4
Q9Y697
G3G010
Q9S9N9
P04036
V4H0B6
P9WIS5
P64550
Q00237
Q9C0C9
Q42435
O00764
Q9FBC5
O00763
Q9XCG5
C5AP81
O34874
O85226
O85227
A0R756
Q9F0I2
Q9F843
Q9F841
O85228
Q00055
Q9M9F5
Q988B7
Q988B8
Q988B9
Q59087
Q59086
Q3A7P1
P09786
Q38933
P09785
B4YST4
P09788
E3SET7
O95803
P42084
P08432
B5B0J9
Q53590
Q48436
E1V7V8
P69490
Q5SJ85
P52790
Q00594
Q0QLE9
Q8KHS0
P00887
Q0QLE4
Q0QLE6
Q0QLE1
A7BKB8
Q0QLE2
Q6RUF5
Q03248
Q8NLC1
O65572
Q947K4
P37744
P0AEB2
Q66PX8
P0AEB0
P73726
P42885
P42886
P42887
Q9XHE7
Q9XHE6
P22106
Q8J0S3
P0AEH1
S7WJT7
P76558
Q9XHE8
P04046
P04040
Q6TP29
P12821
O22822
O75792
B3QHC3
P05091
O28534
P11290
P61457
P11295
O58689
Q15SS1
Q15SS0
B3QHC2
Q5SHE1
F8QQ75
P60664
P09467
Q9FUJ3
Q9FUJ2
Q9M2U2
P0A102
Q5IAC3
J7FJG9
O04905
Q8VXY9
Q8GQN9
Q46810
P80491
O04308
P80490
P0AF16
P0AF12
Q5LL69
Q9M4G3
Q1L2K7
Q3SYZ6
Q1L2K4
P77172
A1B198
Q5VZE5
Q96B02
Q9SJE1
Q9SJE2
E2GIN1
P37339
P0A091
A9ZLZ4
P37330
P75820
P75823
P75824
P75825
P75826
O84619
P9WP53
Q06278
Q6YV88
A0A222FYW4
Q04585
Q9I478
P60932
Q6UEG5
Q9HTP2
Q5FVE4
O75600
S4W4F3
P64636
P77541
P77544
P13298
Q8LAX0
P59777
P0AAF6
P38681
P51018
C3W7B0
P0AAF3
P0AAF1
P51011
P9WQ17
P51016
Q7TXL6
Q7TXL7
Q7TXL8
Q7TXL9
Q10981
O80575
P52895
Q8RL47
Q8RL46
O84265
Q8RL48
P0C061
P07982
P0C063
P0C066
O33836
P0ABZ6
O65896
P0ABM5
Q46338
Q04235
P15848
A0A0A8J5M3
Q55012
P18562
A8KQX2
Q9LF46
P31414
A8KQX7
P60068
P60069
P24228
P74018
Q6LXQ1
P24224
P60061
O94431
P66899
Q988C9
P06722
Q07637
Q54824
D8LC90
Q8KDH3
B0FXI0
P0A7H0
P0A7H6
B0FXI4
O33839
Q59342
Q55330
Q55332
Q5W283
O33832
Q9M7N7
Q08J23
P00439
P00438
P00925
Q6KC22
P00926
P00437
P00436
Q55809
Q108L2
Q108L3
P52097
P52095
P0A759
P07639
Q9LSQ4
P0A754
Q31MI4
D3RVD4
O93715
P0A752
P35557
Q0QWS4
P35558
P49075
P35228
P49077
B0CN28
Q8H1X6
P42414
P42413
P42412
Q93AT8
B0CN27
B0CN26
Q5M969
Q8DPI3
P32684
P17993
P25665
A0A1D3FVX3
B1XHU9
D4GU72
D4GU71
D4GU70
P75898
P54495
Q92455
Q53479
Q0RXE0
Q4H4F8
Q93ZA0
P61817
Q4H4F3
P75050
Q9KB30
Q4H4F0
Q4H4F7
Q4H4F5
I6Y2G3
P9WNE1
P50134
P9WGS9
D7PHZ4
Q00857
D7PHZ3
A5DHJ1
P9WP31
B1A9J8
P32021
Q99755
Q58923
O52643
Q9WYR8
P40015
Q58250
O52644
P06999
P06996
P06992
B0LAZ9
B0LB01
A0A1L2FSA4
Q8XAD0
Q8VYI4
Q9C9L4
P0AGE9
P0AGE4
P0AGE6
A4SCW7
Q76LM6
P10174
P33643
P33316
P33647
P33644
P42416
Q9LIB2
P42415
P36148
Q08871
O05650
P74838
Q9ZFP7
Q9BUM1
P19908
P31119
Q12074
P19907
P0A9C0
Q8RTL5
Q8RTL4
Q8RTL3
Q16769
Q0QLF1
P0A9C9
P15030
P15032
Q16762
Q8RKI9
Q8RKI8
Q03034
Q9S7Z3
Q8RKI7
Q06510
Q3L7F5
Q71RT8
G2ILH4
P0AFA9
P0AFA7
O04469
Q8ZQX1
A0A0U2IR85
Q96375
Q2G1C0
Q2G1C1
P07164
Q96376
P55073
P0A6G7
P0A6G5
P0A6G3
P56258
P94891
Q331Q7
P56522
P0AC98
Q7X2H8
P0AC94
Q88L02
P47096
Q12463
P39411
P17174
P39414
P27828
O74699
P17178
A0A0H5BDF8
Q84KJ6
P21220
Q91YR9
P48407
Q96VB8
Q5NTE5
Q75W17
Q86XF0
Q8E9W8
F4KFT7
I6YGF8
P75531
Q9C7W4
P64578
Q8KZT5
Q5JCX3
P05089
P77756
P77757
Q93088
C6EUD4
Q8VUF1
Q43771
Q8G907
O32268
P78067
O32267
A0A0M3WP01
P13203
P78061
P0AFK2
Q9C5E8
A0A0L9EXC0
P29254
P40009
P05459
Q2LCL4
D0U690
Q8LDU4
Q92458
P0AFK6
P9WIQ1
Q9I2A0
E2GC99
O15229
O15228
P42068
O08498
D2D583
F9US27
P0AEY3
P76397
P76399
P76398
B9ZUK6
Q9BUT1
P0A9B6
Q9SCA0
Q8RWE8
P46380
P27140
Q09131
P42604
Q8N0V5
Q9H5K3
P76577
P57093
P09417
Q67FW6
P26365
O22775
Q6JD68
I7GVG4
O94088
A0A0D2YG10
A0A0U2UYC4
O27726
Q9ZR22
Q9FI99
P0A144
Q9M2W3
P07902
O96024
Q96YZ3
Q8GGD4
P10614
Q6W5R5
Q0P8K7
Q50250
Q9EX53
O04927
O04928
Q49118
O14841
Q9NYR8
Q49492
P61818
Q50783
Q50782
Q50781
O81884
Q08426
Q05421
P25437
E3VWJ9
O60337
P25335
P33121
B8R4K0
E3VWJ1
Q9JRN7
O60331
Q9JRN5
Q79JC2
Q79JC3
Q16394
P75849
Q8KZ94
O84637
I3PLQ6
Q8X167
P47039
P9WQD7
P54114
Q06210
A4L795
P54113
Q9S5E2
P9WQD9
P0ACV6
P0ACV0
P0ACV2
Q944I4
P14532
Q14CX7
O86945
E0U4B3
P12271
E5GAG1
P12277
Q96DU7
P25048
P40353
P40350
P40351
P77567
P25045
P24157
P69681
Q9SK66
O42807
B6ZH72
Q13615
Q13616
P38606
P0AAD2
P0AD96
P0AAD6
P0AAD8
Q5UWC0
P0AD99
P31252
P31251
Q8GAV9
P55229
Q0K844
Q0K845
Q43040
P48839
P51697
P51698
P48523
P23501
P0A6L7
Q1JZW3
Q46E78
A0A0M3WPS4
D3RPC0
A8KQZ3
Q9L9E5
Q9AGY5
P31434
Q60176
Q04212
Q3J1A0
D1BPH1
P21638
Q8G8Y2
Q9I4K5
Q9Y227
Q9Y224
Q88NF5
P21631
P21632
Q88NF6
P21634
P0AB38
P21637
Q52126
Q54809
Q1PDD2
Q9ZSJ4
A7AZH2
P07753
D7PC15
D7PC14
D7PC17
D7PC16
D7PC13
O49292
D7PC19
Q9M7L9
D0UZK7
P00904
P00903
P09620
Q2LQP0
P09622
Q59327
P00909
P9WK17
Q9SRV5
Q46979
Q46978
P39207
A8KND4
O34137
P39208
P49017
A1CFL4
Q84UB8
P0DJA2
P53871
Q8S4F6
P35202
P35206
Q5UYQ0
A0A0H4K9X4
O22340
P01556
A7YN26
P01555
Q93R93
A8HXG5
P28241
P28246
P95137
P28248
O52642
A5BFI4
P72861
P46597
A1B9Z3
O64899
P96111
Q31M07
Q9L069
Q13057
Q2RJH3
P54471
A4SEG2
Q3M6C5
Q8GAK7
Q45440
P0A776
D7UTD0
D7UTD1
P06622
Q9XLX6
A4XBF0
Q58499
E9RFS9
Q3J6F1
B7X4D9
B3VA58
B0LB00
Q9WYR5
Q00870
P9WJL1
Q99Q02
O23349
A4F2N8
P28861
A9JPE2
Q9FEK6
P41929
P39280
P0A809
P36837
Q8XAB8
Q7DC80
Q9Y7C8
Q9KM65
P0AGG2
Q9C6B3
P0AGG0
P22731
P22734
P0A3V3
I6XHJ3
P26602
Q9Z3R2
Q9Z3R1
Q9Z3R0
D6CHF2
P0DP24
P0DP25
P36165
P0DP23
Q9JP98
P33667
P19921
P19920
Q9R4Z6
P19925
D2IKN9
D2IKN6
Q8L9C4
I6UF18
Q8NCR0
Q08891
Q88VJ2
I1RF62
H9J893
Q870P2
I1RF61
O14986
Q9WYP4
Q9WYP5
O24379
O05542
Q0S034
Q16706
Q8YLF9
Q2HNY9
Q44486
O25533
P07102
P77161
A0A1L1VVY9
B8EQ68
O14672
P9WN01
P50579
P50578
P0A6E1
Q9FUS6
P0A6E6
Q2I015
Q50LE0
A9CES3
A9CES5
A9CES4
A9CES6
A0A1D6KUI6
O58690
Q6VPV2
Q60364
Q60365
Q9LTS3
F1KUP0
G0VND6
Q06530
Q96GR2
Q06539
Q9RUV6
Q07950
P29929
P38342
Q00278
Q8G750
C7GNI2
P39692
O80434
P20711
P14835
P75831
P21514
Q8U1M0
Q8KG51
Q76C78
Q55810
Q59516
P20582
P52426
Q54143
Q54142
Q54145
Q54144
A8R7G3
P78007
Q3ZMG6
Q9C5C2
Q9KK91
B4YSH4
Q9LZ76
Q3J0P5
Q0KAB0
P0C565
A0A1D9FP51
P24389
Q31R80
Q9CAP8
P42593
Q99126
P93243
P42596
B1B5P4
Q53882
Q9NB39
Q8EG66
Q8EG65
Q8EG64
Q8KP26
P95833
P76373
Q93X66
A0A077EWA5
Q9FGX1
I6WU39
P18335
P0ABC7
Q7XJ50
P0ABC3
P24169
Q9WXS1
Q9WXS2
P9WKI1
P00572
P0ABC9
P27128
P27129
Q5SH27
O65201
O65202
Q5SH23
P27127
P27125
P76518
P07147
D4GSW7
C9K1X6
C9K1X7
Q8KN40
C9K1X5
Q2PEN5
A3DJP0
P72986
Q2Q478
P77434
A0A0D4BS77
P54868
Q70YP8
O32429
O22287
O43505
O48779
Q12246
P37450
O31211
P96561
O96007
Q9SUM3
Q42883
Q3IED5
P46903
Q6IQ20
P46904
P42626
P42620
A0R6E0
P0A9C5
P9WPD5
P0ADC1
Q5IT32
Q5IT33
Q0WW55
A4KDP0
P25415
P72320
P72321
Q0IS49
Q63276
Q94E75
D3G6S4
Q72JV2
B9WZX2
B9WZX0
B9WZX1
B9WZX6
B9WZX7
B9WZX4
Q02795
O23087
A1C8C3
Q55240
P10906
Q9LRR9
P75864
P00466
Q9LRR7
Q6BEX0
Q9XFT3
Q15738
Q15735
P13035
Q9M1W4
Q94CE5
Q9X406
Q9NYP7
V4HM79
P11071
P0ACX5
P0ADL1
O24035
O00116
P69212
P50908
Q9APM3
Q9APM5
Q57430
P9WMV9
Q8RKI5
P0A7B8
O95331
K0E4E5
P73322
Q9Y2B1
L8EYR2
P55809
P0AAB2
Q83YH3
Q2G058
Q83YH7
P47895
Q9FJW4
P0A7B1
P48507
P48506
O15056
P59082
P48508
Q9Y020
P38427
P38426
Q9USX0
Q6XAF4
Q01911
A0A0M3WPQ7
Q93PD1
P62003
P15907
Q88EE2
Q07010
Q07017
Q07540
Q2FZW6
E4WD16
P15807
Q2FZW3
A3DIL1
A2WYE9
A9C3R9
Q9HBK9
A0A0D4BSN8
P0AB18
P94681
P94680
Q2U0N3
P39594
E5KJ95
Q936S4
Q936S5
P39593
Q93QX2
Q8S8N6
E5KJ99
Q936S8
Q936S9
P09601
Q9M7B9
P0AAH4
P53101
Q9L0T8
P00960
P00963
P00962
P56779
Q94JQ6
A3SQG3
P00968
Q11130
Q9SRT9
O60513
B5GMG2
P95480
P95481
A0A023I190
A0A1D3HQE0
Q2V6K0
A6W2K8
P46022
P43503
P46020
Q9SE50
P51570
Q9T0A0
O75452
Q9R4G8
Q09327
P14314
P0AAG8
P25972
P25971
Q8KI25
P05707
P0A7D7
Q7G9P4
J7FIX5
Q0JL46
P00387
P25628
Q92499
P72849
Q05852
Q05329
P77836
P25627
P00388
B1GRL8
B1GRL9
Q54354
Q48398
Q41510
P08559
K0E3V3
Q9HAC7
Q41515
Q9R6U1
Q93WC9
P75096
E5KIB9
Q76FS5
P0A712
P0A715
P0A717
A4IT51
O94925
Q70FG7
Q67VS5
Q6ZJL3
Q99714
Q2G2T6
P97084
P63183
Q9LR75
Q9LR73
P28845
P32063
P0A825
P41903
F4JYE9
P0A821
A0A0E3SMI0
P97224
Q81EK9
A0A0K2SRV3
Q5J7C6
Q5J7C7
Q58217
Q4K418
Q88L01
I6XHH5
B9TTF3
Q9HCL2
P0AC96
Q12383
Q12382
P55217
G9EZR6
P11444
P11446
P11447
P36107
P26459
D9XF45
P22634
P22637
P22636
P51687
P04805
B2WSM9
B2WSM8
Q8J0D2
P56947
P72177
O04130
Q88KS5
Q88KS3
Q43922
Q9HXE4
Q9HXE3
P75611
O83033
A5PCK8
P0A6C1
Q5E3J8
P0A6C5
Q4PNI0
Q9RFR0
Q31LJ1
Q9FAE3
Q6LWM2
Q4G1W2
Q84KJ7
P0CW77
P42962
E3UBL6
Q8H0I7
Q8LEQ4
D7GXG0
Q0P8T1
Q0P8T0
P20906
P20901
Q0P8T7
P43619
P33312
Q9UW95
Q42524
Q42525
O24931
P77247
P77243
A3DHB4
O25511
Q06005
Q06004
O87198
P23909
P94417
Q5JE39
Q9C544
Q9T074
Q9F5K5
P11868
A1XP58
Q07973
P76458
P16095
P05041
Q9SBA5
P05042
Q04958
P78285
P77790
P77791
Q1R9Q6
P63177
Q8KBG1
Q8NMA4
Q8L7R2
A9CEQ7
P48978
P48979
A9CEQ8
P9WJK9
E8RC38
O30847
C4TP06
B0B7P4
P17549
P31572
P31570
I3PLR4
Q9FMA5
P17540
I3PLR0
I3PLR1
I3PLR2
I3PLR3
C6XZB6
Q6ZVK8
O95864
O15269
Q2HZZ6
Q2HZZ5
Q2HZZ4
A9BHJ0
A0A9J0
Q5IW44
P76352
P76350
P32906
Q7LGA3
P32277
Q7X9I9
P18644
Q5IW40
A0A3S5Y2L0
P9WKK7
B2IZ40
P04391
P04395
P0ABA0
O32223
P0ABA4
E7FHP1
P0ABA6
P00550
O75845
Q46839
P00954
P76536
Q9FNA9
P00562
Q9FNA2
Q39194
Q4JZE6
P12884
P12886
Q8KFK3
O81108
Q9L4X8
Q9L4X9
Q9L4X0
Q9L4X1
Q9L4X2
Q9L4X3
P08495
P24232
O42692
Q6E7F1
Q6E7F3
P41222
Q6E7F4
P41227
C0SUJ9
Q8S3N2
Q92536
P77182
P46925
Q94G70
Q84JA6
W6JNP4
Q58043
P9WPF9
P73832
Q8IIJ9
P27101
Q8IL04
Q9SZZ8
P0AED9
Q9KK79
Q9KK78
Q8ZKR2
P26276
Q9F466
P0CB39
Q3IZW0
Q3IZW1
Q05469
P45530
P49053
Q9SWW5
Q60FC7
Q9SSU0
Q9KI51
P21888
P21880
Q9R9T1
C0JRF9
P10907
P10905
P10902
P10903
C0JRF0
C0JRF2
P10908
P18757
P45532
A0A222FYQ1
P37313
Q6ZD89
P08237
P0AGL7
Q9SH93
O33820
O05617
O81829
P23295
P0ACZ2
Q56320
O05619
P32375
Q47RM6
P73727
O50210
Q9LEJ0
P61599
P40318
P40319
Q9ZAG3
Q02115
P38992
Q9ZT84
P38625
P38626
K4JFC7
Q9ZVI9
P21264
Q877I4
Q877I5
Q5HG02
Q877I3
P37355
Q3HR17
P37351
Q4VKB4
P37353
Q96I99
Q4PEM9
P31213
B6EHB9
P50651
I3EAB7
A3DBC8
P10659
P33527
Q8DTS9
Q06965
P16430
Q07566
P16432
P16433
P16435
Q9NZL9
Q9Y006
Q9KJE8
Q9KJE9
Q4JAQ3
Q4JAQ2
Q9KJE7
F1CWE4
F1CWE5
F1CWE2
F1CWE3
P16550
P69060
P16559
P21673
Q89ES8
U6BKG4
P29082
P0AB71
P0AB76
P0AB77
P0AB74
Q9XB59
M9PMU1
P39578
B4FQ44
O22527
Q9XGP7
A0A0U1RHN7
O06492
O06491
Q55356
Q55354
O06499
Q2VEQ7
Q12093
Q8LK04
Q94JS8
P16885
P00946
Q94JS4
Q9HUX1
Q8TDX5
Q8TDX6
Q9KPS1
Q9KPS2
P77475
Q5VLA7
Q5VLA6
P0A6P5
P39714
P55299
L8EVX4
P23133
V5TDY7
A2R6Y6
P75308
Q9C2Z0
Q3HUR3
Q2VMT1
Q9VSL3
P25995
P25994
P25996
B0VDT8
P25993
Q4ZH57
Q56ZD5
G0RNA2
Q4KPK2
Q05871
O93627
P08536
Q9SY55
P52129
Q8N465
A0A0D5YGP3
Q93WE0
B3IUN8
P0A738
P53839
Q8YVS7
Q9BSE5
P00386
Q9NPF2
P48360
Q58185
P98008
F1T283
F1T282
O50580
P62623
P62620
Q1W3E4
P96156
P96155
P0A840
P0A843
Q84QI4
Q93T65
P97207
F4MJM0
Q9ST02
O65018
P0AGC3
P0AGC0
P32232
P0AGC5
Q31KU3
P26647
Q4KCY6
B0NAQ4
B5T072
Q44315
H9IWP6
Q44316
A4ZKI0
Q9HA47
A9BJC1
O23299
O27939
P22619
Q93AU0
C3UVB6
C3UVB9
C3UVB8
Q46222
Q8PDX2
Q9X9I8
P04825
Q9CFW8
P49419
Q8VWZ8
Q58980
P56926
A0A1D3IYA7
E1V8H0
Q9Y2H2
A4F7N2
A4F7N3
Q8L172
A4F7N6
Q0WQ07
A4F7N4
A4F7N5
Q2G1M8
Q2G1M9
P24241
P21816
Q2G1M5
Q2G1M6
O84992
P0A6A6
P0A6A3
P40875
P0C8K0
P37651
Q6QVU1
P37653
P37652
Q8TBE9
P37659
Q9NVM4
O24913
P17115
Q0P8V9
P17056
Q58YV9
Q6USK2
Q08636
O24919
P48418
P13352
Q9LA83
P94531
Q57843
P25340
O95749
P9WHS1
N0DLZ6
P69908
P23966
O25061
A0QYC2
P08203
P05062
Q9T053
P39370
Q8NSN7
P17058
Q8GPG4
Q8GPG1
Q8GPG3
Q13822
Q13825
O82768
Q8W3U4
B9DGU7
P39386
Q07994
Q9HY69
P31550
O95336
P31552
P31553
P31554
H2K887
Q8DNG0
P31005
Q9AH10
Q61419
P29474
P29475
Q88JY0
Q9Y617
P74797
P32929
Q01103
Q01109
P0DOB6
P0A8F0
Q9WY51
P18669
P0A8F4
P0A8F8
Q08282
Q57872
P23006
P38364
P9WKE1
D0C9N8
Q46817
O32756
O32757
P0ABG1
Q4KD57
D0C9N6
O82833
Q9XJ43
P22188
Q9FA38
A4YEG2
A4YEG1
P0A698
P22185
Q59115
Q0ZQ43
Q0ZQ40
Q59116
Q59111
Q59110
Q0ZQ45
P53730
Q39172
Q8NFP7
Q9H999
P27696
A4SD33
A4SD32
P93757
P10336
Q7LGC8
Q9ALM8
Q9ALM9
Q2WE96
A9QNL1
Q9UHE5
Q9ALM7
Q9UWG9
Q03149
P72144
Q91ZJ5
Q94G59
P23367
O04986
Q9SUI7
O04983
Q9SUI5
Q9SUI4
Q02861
A2QAC0
Q09152
P0AEJ6
P73812
O08651
P0AEJ2
P0AEJ0
Q9LSF8
Q9AQM4
P82604
P9WMZ7
P9WMZ1
P33590
Q9H227
P72495
Q5TBB1
P11217
P11216
Q8DPI2
Q14534
Q8DPI0
Q8DPI1
Q8DPI6
Q8DPI4
Q9SJM7
Q8KQL6
L7VFM4
Q8KQL2
Q93W54
Q9R2F4
Q9R2F5
Q9M0S5
Q81RQ5
Q81RQ4
Q8X452
Q2I6N7
A9A1Y1
P9WGR1
O07455
O07454
O07457
O07456
O07453
Q51948
Q51949
Q51942
Q51943
Q51940
P08457
P03961
O87875
Q4KSH9
Q0C8M2
Q13907
P9WNX9
P50416
O52545
O52547
Q12177
P0AAN3
Q12178
P38604
Q9RBY6
Q16880
Q9CID5
P31837
P12747
B2BH32
A0A1L5BUX8
Q6LS57
Q6LS56
Q6LS55
Q03426
P73070
Q9LE33
Q8WZA1
M1L7D1
Q2RMZ4
Q07500
Q9NZJ9
Q1NEI8
P0AG82
P0AG80
Q1NEI7
P16456
A8DRH9
P0AG84
A6YIH8
L1LS50
P41835
P12293
P12295
P15245
O06923
E8RG65
O06926
O06927
O06924
O06925
Q59476
O06928
Q59475
P69739
P0AE26
P0AE24
P0AE22
P16539
Q8NL91
Q8NL92
Q6L741
Q6L743
P75757
Q3IY65
K4JII4
Q96C11
Q4WYG3
P46964
Q9ZNW2
Q96266
Q9HWG9
A3DDW7
P51108
Q7AKF0
Q8TJZ9
Q8TJZ8
P30014
O94218
P30011
O59652
Q8TJZ5
Q8TJZ6
P11988
Q96SZ5
Q9HWG5
Q1RS83
Q1RS82
P11987
Q9S702
Q9M066
P77455
P77454
P83380
Q15JG7
P71431
Q9Y3I0
Q8VZB2
Q6J1Z6
Q6J1Z5
P0A935
Q9SXE1
P55826
O00519
Q9HU15
A5JTM5
A0A0C5QRZ2
Q8KB11
Q8RS38
Q8TCD6
O48905
P54419
B2HIN3
P54415
Q8IYK4
P0AE18
Q83V33
Q9XCR4
Q54468
P06280
P06989
Q47689
Q93ZI4
P37298
B9UJ99
B9UJ98
Q39541
P21693
P42765
Q9WYS2
P42760
A0A142ZC57
P97047
Q936T1
S4W780
P76474
Q936T0
P76473
P32719
P32718
P32717
P32716
P32715
Q8TC12
P43456
A0A085SPA3
Q92SJ1
P62601
P43457
P26406
P18125
Q9UI17
Q9LR30
P08310
Q04675
P46133
P19456
O27481
Q20HU6
D3JV03
Q5UZI9
Q46799
P07862
Q9C9D0
P0A8Y8
Q8RR28
C4J4W2
A4QB63
Q94K43
K4JV64
A4QB64
P21912
E3PY95
E3PY96
B9ZUJ4
Q93TQ0
Q9HA64
A0A075XAG5
L8EVF2
P72777
O64925
P49435
P09831
P09832
O24680
M1VNH2
I6Y3V5
Q9SWH5
M1VAY3
Q9Y2J8
Q79VI4
P37095
B6D5I7
Q9R5L1
Q9UPY5
Q1PW30
Q9ALP0
A0A0A6ZFY4
A0A134BSZ3
Q9AJL9
Q04508
Q9WY79
T1XFB1
Q99J77
P63235
P0DP89
Q9SUR6
P0A9S5
P75691
P37678
P37677
Q1RPP3
P37675
P37674
P37672
Q8TBC4
P77202
P45511
Q42560
Q42561
P25325
Q9YGA9
Q42569
Q64374
A2A5N7
Q96GH1
Q6AW43
Q6AW42
Q9SJC4
P69922
P69924
S6BHN8
F5BFC8
A8J264
P06611
P06610
P06612
P06617
P06616
P06618
P55342
P40459
P60340
P0ACA7
K0E689
Q70LF4
P21524
K0E684
B7ZDL7
B7ZDL6
Q9M9P3
B2J1M1
A8CDT2
A8CDT3
A3SN10
A3SN11
Q2T3X5
Q9UJ83
Q7BQ71
Q38998
Q84FY8
P10443
P10442
P10441
G2IMF2
Q9C509
P62837
B4FHU1
P29256
P25819
P76641
P28492
Q9UIC8
P25772
Q7XZQ8
Q02278
Q59289
Q59288
P0A8H3
Q9SCY0
P51820
Q08558
P0ABE9
A1IHK4
Q1JR98
O01672
O43909
P08722
Q46871
A1DJ20
P54115
P53972
A0A0D5YF58
Q40322
Q9UKY4
P53759
P9WQD5
P09053
Q86B61
A3KCL7
Q93NG3
Q93NG1
Q9Y6N5
A1E3C4
A0A0D4BS17
P80595
I3ZNU9
O13345
Q12001
A3KEZ1
D7GXF9
Q8GZD8
A3F5L3
A3F5L2
Q7XAU8
Q56CY9
Q8LPN3
Q9SXF2
A0A1E3P8S6
P9WPB5
Q9X273
Q9RFM8
Q9HWR4
Q7X9J1
Q7X9J0
Q0JRK4
Q96HD9
Q94FT4
P14169
Q6LG95
Q8GXV5
P54995
P54997
O82140
P54990
P9WMX7
P09323
P9WMX3
P54998
A0A0F6B8S8
P32368
Q9FIA0
P07981
Q9FX01
A0A0F6B8S7
Q94ID3
Q97ID6
Q06529
P10944
P45744
Q9TRF4
P45743
P45740
P45741
Q8EMJ9
A8IZZ9
E7BBN5
P45748
Q5KSN4
A9CH28
Q51969
D3RVS6
O05651
D3RVS9
Q9FD36
O52561
B5UAQ8
Q9BZX2
P21955
Q8L5Y9
Q46857
O67010
P21953
P0C6E0
P47125
P39265
B4F9A4
P80668
P0AAL3
P07328
P07329
P04983
P04982
Q6VVA6
P61714
Q9XFR9
P9WNL8
P65870
P10868
Q03154
P07395
F0T4D1
Q93VR3
P38489
O65837
Q8N5Z0
Q53U19
Q69X58
Q9LEN0
Q9AGY7
Q9AGY6
H9LAI7
Q5ASQ3
Q84Y09
M1KWK0
P9WK13
Q8TLB2
Q8TLB1
Q8TLB0
A9KHK4
Q9BU89
P0AE01
P10867
P0AE06
P0AE08
P52839
P20576
O34426
A0A0A8J540
O34351
A1AST5
D6CHF3
F1SVE4
Q672R4
A6N928
Q9M0A5
A0A0J9X1Q5
Q9M0A7
O54288
A4ZGQ8
Q9L9V1
Q9L9V0
Q96242
Q9BTT7
L8EUP4
A0A0P0UT87
P30038
L8EUP9
O60825
P17707
P39288
A8R7G4
C8WJZ5
P39286
P17709
Q1IAL0
Q1IAL1
Q9S720
Q84MA2
Q96EY8
Q9S725
P0A6Z1
P77432
Q8TCG5
P71103
P23173
P71104
Q5QEX7
P78417
P37676
Q5MG47
Q00711
Q50EL0
Q945B5
A0LRH7
A0LRH5
P17649
O49213
P06007
Q9I296
Q9I297
Q8PE06
Q59158
P0A7B5
Q9I299
Q9D9V3
A0A1L7J159
P0A7B3
Q7BHK2
I7C6E8
Q9M7D0
Q9M7D1
Q64611
B2HIL3
Q9ZBB0
Q5Y818
Q8NQ09
Q9FKB3
P52697
Q0PAX5
P74167
P74165
D3YQ70
Q8VUS8
Q8VUS7
Q8VUS5
P43567
Q5FA27
Q02432
G0KYB1
Q02431
P45539
Q31RR3
Q31RR2
Q5E3J6
Q5E3J7
P45531
B3QHB5
P93541
P42212
Q01446
Q72CJ4
Q9I434
E1YD53
Q9I433
P76108
Q9UI30
P32771
P76459
P22220
Q838J9
Q8GU22
Q8GU20
P04161
Q9LBG2
Q8GU24
P0A884
P0A887
P26935
P26420
P00895
P00894
P00893
Q9C9Z5
Q12362
P27338
B2C4D0
B2C4D5
B2C4D4
Q52722
P15723
Q52725
O48676
Q7A2M4
P49189
Q9REV4
A4ZKM6
A4ZKM5
A4ZKM4
Q0FPQ4
O31042
O31041
Q9S7N7
Q46267
Q46266
Q0P8S9
P02943
Q9NUQ2
Q841K5
Q841K7
Q841K6
Q841K1
Q841K3
Q841K2
Q12794
Q841K9
Q88QT2
O75036
Q05526
Q05521
Q84LB2
Q9SDZ9
Q147S1
Q9BVG9
Q05529
Q05528
A1IGV8
I6Y3T7
P75906
P75905
P32746
P75908
A3DDN1
P0DKC5
G0WXL9
O33819
Q9WY52
Q7Z859
A7KBU7
V4HJ73
P11175
P11177
Q00922
Q9SLD2
Q4K1B3
Q4K1B2
Q00924
P20960
P37610
P12154
Q9VWR5
P37617
P80702
Q81RQ7
Q42588
Q31LE7
Q42586
Q81RQ9
Q81RQ8
P50861
Q9S7D8
C7SDN9
Q9S7D1
Q13572
G2IKV5
Q2RI40
Q2RI41
Q2RI42
A0A0U1ZFM1
Q15JG4
P05020
Q15JG1
P40471
Q12291
P22234
P06632
P76445
P9WJM1
P9WJM7
Q8TM02
A0A1D6K6U5
P33913
Q8RMI3
P33916
Q55891
P33915
P38038
F5CJS6
G2IQQ5
P0ACC7
P76440
P0ACC1
P10384
P31040
Q75PL7
P31513
P04152
A8CIV5
Q8VWZ7
P0A9U1
Q9UQ53
A0A0A7RQ84
P27431
Q7BQ74
Q7BQ70
Q9F1Y6
Q7BQ72
P10423
P21156
P21151
Q6TBX7
Q9AVA5
Q00548
P64594
P76938
O33955
Q43127
P70994
P83194
P70999
P0A8J8
Q94ID7
A3DBX3
Q94ID1
Q94ID0
P0C7L2
Q94ID2
P09210
Q7WYU8
Q7NSZ5
O32712
O32713
Q46856
O32711
Q46851
O32714
P0ABK9
P0ABK5
P0ABK2
P16703
P16700
P16701
Q9P8H5
P76594
P53954
Q7MWT9
Q59159
A0A0U2WCB2
O22203
P35340
Q7U0G9
Q59157
P23099
Q6JTJ0
Q9STS1
P28306
P39071
Q88NF4
P32964
Q31PS1
P27652
Q88QT3
P32961
P32962
P96072
P21633
P96074
Q92551
Q50497
P0C1R8
P23321
A2SP81
P0C1R5
P0C1R6
P52575
P09401
P0AEN1
Q9HAW9
Q93I77
P0AEN8
A0A314KSQ4
Q9T2N6
Q9SX77
Q47720
Q9X295
Q9FNK4
O15991
I3V6B7
Q8NET6
P54205
P54206
P32340
Q8KCU0
G2IN04
Q9HGE3
Q31S19
O23553
O80952
P0A434
B3TPQ6
B3TPQ7
O95571
O95573
Q57658
P40110
O44074
Q1L2L3
J7SH14
G4T4R7
Q9BQB6
Q53725
Q83VZ3
Q83VZ4
Q83VZ5
Q83VZ6
A8M783
Q51980
Q9AQI1
Q9AQI0
O69054
Q0GND7
Q9LQ12
D3UB67
B5GVJ6
Q8KGE0
B5GVJ3
Q9SK82
Q0SFL8
P78011
Q9S3U9
Q9S3U8
P33767
Q9S3U5
O32271
Q9S3U6
Q9ZAA8
Q0SFL7
D7PC18
P0AAJ3
P0AAJ1
O32273
P0AAJ5
P21977
Q6ZIX2
P23284
Q94FM7
P07308
P80645
P12709
Q9X3P3
A0A1D6GQ67
A8J9Y1
P04968
P04964
O24524
Q03175
P07046
Q0ZQ39
B1N7H2
P16496
Q56295
Q9ZUC1
P0AG40
B1P0R8
P15288
Q9FDV9
O14717
A9WEU4
Q8LAD0
Q9AH03
P55135
Q9FT88
P50457
Q9AGW3
A0A0H3LKV3
P0C0U4
P0A433
P0AB98
M1KXD0
P0AB91
P0AB93
Q9M0G0
P39518
Q9HHC8
Q9ALN2
A3CQ16
E4PMA5
P0A0B8
Q56950
A6N6K8
Q7XZ05
Q7XZ07
Q9ULC6
A6N6K7
Q9ULC5
Q9L9P7
P38205
Q49HL5
Q2G1T6
P0AD65
P55792
P06797
P55798
P55799
P17725
D2CPE1
P17721
S6AU36
S4W172
Q0E088
Q9LNE6
D2STN3
D2STN2
D2STN1
Q8H1L1
Q9Y463
O53579
O53578
G3K3F8
E1YIW6
Q8NR92
Q8NR93
Q9Z4Q7
A4FPS2
Q8NR94
Q47538
Q47539
Q0PCD7
P33371
Q47537
A0A0B4ZTQ2
P48491
Q59385
Q9SB60
Q2R712
P32573
O48946
Q01284
Q15UF1
D3V9Q5
Q9XCV7
Q9XCV6
G0KYA9
A3R052
Q1R183
Q31ME6
P34756
Q9S816
Q84HH6
B1B1U4
Q9S818
A3DFA0
Q08108
B1B1U3
Q99798
Q02418
M4IQQ5
P32754
B9TTF7
P76129
B9TTF4
Q9LQC0
P18163
Q01468
P53090
Q6ST35
P82125
P16930
P9WIB7
E2JA26
Q12305
O43175
P19413
P19412
P19410
P27355
P27354
P19414
A5HB93
P0A8Q3
P0A8Q0
P07821
C9K4U2
P07822
P07826
Q58167
O64692
O64697
O64698
P92923
Q5JJB8
P45514
P93032
P93031
P45510
A6UWA0
F9UST4
F9UST1
F9UST0
Q2MFU6
Q9KHL1
Q9SF85
Q471I2
Q471I0
E2JA29
Q00471
B5XZW2
Q58297
B5GVJ0
O64961
Q8J0L6
Q7Z7A3
Q8CWR6
Q8CWR1
Q8ZP52
Q8IWU9
E9NH28
D4GYG7
P75960
D4GYG5
A8JFB0
D4GYG3
P75966
Q9ZAA6
Q96YK1
Q9ZAA7
Q9FUY7
Q75T27
A0A0K8P8E7
P24171
Q6ZPR5
P0AES4
A4YGN0
P05791
P0AES0
P05793
O23762
P0A7J0
Q8NKW5
A1DN10
P24175
Q0SFL6
Q58835
Q46EH3
D7PI20
O03042
Q46EH4
A9ZRZ6
Q0SFL5
O52249
Q6X1C0
P0AFU8
Q1EMV9
P37051
P0AFU0
Q1EMV2
Q56190
Q3SY69
B7J3C9
P37058
H1ZZA4
P33934
P33247
P33937
P33931
A0A0M3WNY7
P0AAJ8
A0A0M3WNY0
P38051
P38054
Q9I0Q0
Q9NQ88
P37637
P37636
P37634
P22855
P0ACE0
Q8G5P5
P0ACE7
P13266
Q9A6Q5
U6C5K7
Q60037
Q60034
P21177
P21170
P69348
P21179
Q75SP7
Q12680
G0Y288
Q7BQ98
Q44571
Q43250
Q43255
P0AA78
Q44577
Q44576
P80644
Q9Y4C5
P05637
Q07353
A9W9X0
P14891
P0A8L1
P62878
Q96CX0
P18394
P24181
P24180
P24183
P56653
A0A1S6Q8F9
P24186
P56778
P67910
Q55217
Q55214
Q55215
P0ABI8
I7ASS7
P13000
O60476
E7FHX6
P00944
P39896
Q9FMY1
P56777
E2RU42
P39898
B2DBF0
Q8X5N8
B3EY95
Q39112
Q39111
Q39110
Q8X5N6
Q52NW7
Q8X5N4
P27550
A9CQD5
P27986
P27987
A9CQD3
P42535
Q31PU9
P27988
P27989
P93733
P25855
P25856
P39099
P25851
P95676
P77608
Q05756
Q05755
P43623
Q05979
I6YCF0
Q93CG5
O32270
Q66PF4
Q9CA35
P05404
P09144
P0AEL6
P0AEL0
K4D6C1
Q9UKU0
Q9M8Z7
Q03520
P54223
P54222
Q38J50
F4Y9I5
F4Y9I4
P47013
A0A075XFI4
I7LW01
Q58826
P0AC13
Q31S39
P32322
P32320
P32321
Q9FIE8
P0A7Y8
S6B1Y7
P0A7Y0
P0A7Y4
Q58339
Q9LJK2
Q9LJK1
Q57103
Q9JI99
Q9CGE1
Q84UU4
Q8GXR5
Q8GXR9
P11586
Q94AU7
P33030
P33744
Q8PVB3
B1NF19
P0AAH8
B3VA59
P19358
P16127
Q02196
P0AAH0
Q02190
Q9NX62
P31898
Q9I3S3
P31895
P31894
P31897
P31896
P31891
Q8RY71
P07364
P31892
P0AES2
P77952
E0XCR3
P71017
O66187
O14735
P07023
P07024
O14732
Q54527
Q93YP7
P07913
Q8PUM0
E0U4V7
A0A0H3C801
A0A096ZEC9
O96033
Q8T9Z7
Q0PGJ6
O04277
Q9NR45
Q0S808
O53638
Q9HBU6
Q6IA69
P75733
Q9NUJ1
Q9LXL5
Q47146
Q47140
W6JQJ7
Q47149
P23845
P23847
A0A0A8J686
P13458
P23843
P23849
P13453
Q8GI19
P29801
P30079
P95463
P39795
Q8NP23
P0A6V8
Q9S762
A3CLX4
P0A6V5
O84467
P0A6V1
P06773
O25366
Q93FC0
P56460
B2NI93
Q6YI95
P13674
Q9Z4S7
Q9Z4S6
Q9M6F0
Q9I1Q1
Q9I1Q0
Q9I1Q2
A0A182D0P3
Q3L181
Q0PCF4
Q0PCF5
Q31LU5
Q9UM07
Q0PCF2
Q0PCF3
P51164
O15120
O15121
Q08698
P39135
Q06892
P39131
Q9ZWB4
Q8P8J5
Q8P8J2
Q01269
A0A024FRG9
D4GXZ3
Q8U477
Q9VUF8
P81181
Q46BK8
Q7U4P2
Q7U4P7
Q7U4P6
Q0KCU2
Q0KCU3
Q0KCU4
A0A140N5J7
P76142
P76143
O35132
Q12122
P76149
F5BR59
O81646
O33905
O33906
O33907
O33901
D2KTX9
Q9I476
Q9I477
P00325
P10378
P35790
P35791
P10371
Q2FXM3
P35798
Q9BXI3
Q9HYU4
O48962
P75713
Q5JDG9
Q6Q796
Q9FLX7
A8HQD7
O06647
O06646
P60785
Q50331
P96481
Q63150
P53215
Q9FGI6
O06648
A0A097SRG2
P93052
P45575
P42254
P42256
P45578
C0LTM6
Q94A84
Q0P9D0
Q0P9D1
O93661
Q0P9D3
Q0P9D4
A0A075XAI2
P0A3V5
P43534
Q9FFW8
B0L7F4
P72712
O64411
Q7SIF3
Q7SIF4
Q94B35
O75072
Q84LF2
Q84LF1
Q84LF0
Q05567
A9Y8S9
P11350
P14180
A9Y8S6
A9Y8S7
P14184
P75949
P75948
A0A161CAI1
Q9FXY7
Q8KIL1
Q308N0
P28904
P28907
Q9SBL1
P45395
Q53685
Q53688
G3XD94
P0AEQ6
P0AEQ3
Q9VMY9
S0DQN6
P03007
O87170
A0A0H2X454
Q9S7H8
Q97U29
Q9S7H4
P13860
Q9V074
P0AFS3
A0R5M7
P0AFS1
A0A1L5BTC1
P0AFS5
Q9SJ20
P0AFS9
A0R5M9
A0R5M8
B6CWJ4
B6CWJ5
B6CWJ2
B6CWJ3
B6CWJ0
B6CWJ1
Q2FZ11
Q50KB2
G2IKR4
Q9RR27
Q9EXK5
J9ZU73
A1SC76
Q845K2
A1B1A8
Q9RR28
Q9RR29
P48622
P48623
A2XFU4
A2XFU5
R9TPE4
P9WJA1
P00966
P0CT20
P48629
Q9LJP4
Q47155
Q9BYV7
A7B4V1
Q9BYV1
Q6QVU0
Q939Q6
P38075
P28321
P94255
P0A7H3
P38071
A1XI29
Q8KY19
Q939Q3
Q1A1B0
Q5VJ88
A5N5C7
P13242
P18408
M1WXK8
P0AA67
P13249
M1WXK6
Q04810
P18405
Q5VJ87
P21111
P21110
P55793
Q60352
Q7XB11
Q55053
Q55054
C1DMX5
D5JBW8
P74334
P19926
W7MT31
P0A8N3
P0A8N7
O81346
P0A8N5
O44390
Q14353
Q8S0S6
Q86ZV0
Q530Z6
A1IHE6
A1IHE7
Q46898
Q704E9
C0KZ34
Q46893
Q46897
P77596
Q9FMW9
P39305
P39304
P39306
P39301
P39300
Q96565
P25741
Q07804
Q8L7L1
O27906
P25742
O26290
Q6VAB0
D0WZF8
I1RF60
Q6VAB4
P27614
Q9S746
P27616
A9CQJ3
P95619
P95618
P06181
P77625
A8JI07
Q48295
Q48296
P53602
P0A8M3
Q2FW73
Q2FW72
Q2FW70
Q5SKT7
P30870
P30871
F5HN72
F5HN73
P05429
Q0K2K2
Q0K2K1
P53915
Q31NV7
Q9WYP7
P53912
A0A0H3C6P8
P0A962
Q31NV8
Q6TW99
Q8N0X4
V5YW53
Q643R3
Q9WYP3
P67775
P00175
P32656
P05523
A0A097SRI2
A0R529
P76256
Q83WF0
Q83WF2
Q83WF5
O59893
Q83WF7
O59653
P76084
P76083
P76081
P11067
Q5W251
Q5W252
Q5W253
Q31L05
Q8GIS4
Q9SPK3
A4GYZ0
Q9SS48
Q8TQQ6
O15488
Q9SH30
G2INY6
Q9NYL5
P57793
Q02207
Q46389
P38891
Q9FCP2
A8C981
A8C980
D4QF25
D5KB53
Q8WVX9
F8S1I0
Q44238
P21281
O28606
P0AAV4
P73906
P36024
Q8NDN7
Q2G093
P16100
P19623
P19624
P19337
P04693
O86169
Q57160
P69210
Q3KTM0
P0AG07
P11653
P11652
Q5GBH5
A5JTM6
P07003
P07001
P07000
P07004
Q96A70
O31676
P50369
P25549
A0A109P1X1
P33013
Q9EUT9
P9WNP5
P33018
Q5H398
P37774
P37772
P80573
P38790
P38793
Q57501
O24382
P0A9N8
C6FI42
C6FI40
C6FI41
Q9LCV9
C6FI44
P77364
Q9LCV7
P77366
Q9P2W7
Q9LCV0
P49726
Q42400
P23869
Q06326
P23865
Q06457
Q03131
Q03132
Q03133
A9QMB3
P11908
A0A1J6PBK3
P0A6T5
I3QBP4
P0A6T3
P0A6T1
D7URL9
P95442
Q9LVZ7
P13650
P13656
Q4J8Z2
Q8RQQ0
Q84BZ1
Q84BZ0
Q84BZ3
Q84BZ2
O07013
L8EYU3
O82663
Q50927
Q50926
Q50925
O53533
O81192
F8S0Z5
P63883
Q9UM21
F4JBI5
Q51560
Q6ZY51
B7T912
Q2RSU5
Q2RSU7
P38242
P29753
P51184
P32141
Q93050
E2RTY6
P31327
D3V9Q4
Q9I181
Q9FZ96
Q9I184
P51981
P31224
P24555
Q9SE93
A0QZY0
P16689
P16688
P16687
Q2YIQ3
P16685
Q5LS57
Q2YIQ6
P16682
Q68AP4
Q9UF12
P53059
Q84N31
S0DLP2
S0DLP1
P00343
P9WIN5
P9WIN1
P9WIN3
A0A0M3N268
P08594
Q9XI60
P53582
Q9AU11
Q9FD71
Q9FD70
A3DGI0
P23262
A6T661
P0AC78
P0A7D4
A0P9I2
Q9ZQV9
E7FHC4
P32799
P0A9S1
P0A9S3
C6L2E7
P0A399
P0A9S7
P38435
P0A395
B0CN25
P0A396
P0A391
Q84HH8
P25737
P25736
Q5XF03
P68688
P25524
Q5JDU3
E6UBR9
P36234
A0A086K9Y5
Q93V78
Q6WB13
Q6WB12
Q5E4J7
Q42653
Q42654
A1B4L2
Q42879
Q9EYU0
P23670
Q8J2V8
P23677
Q58787
Q58786
Q57573
E3UUE6
Q99424
Q53669
Q9HAN9
Q5LEN8
Q941A0
P42850
P0AEW9
B2J6X8
B2J6X9
O23722
P0AEW4
P0AEW6
G0LES5
P23921
P81291
Q9SJ05
Q02016
P0AFQ2
P12683
P37019
Q96PU5
P12684
P37012
P80210
Q8KBK9
A0A0M3WNE9
Q9LY23
P34896
P34897
P34895
O65933
Q9SMG6
P33207
P73962
P29388
P09960
P62100
Q03305
Q03304
Q29VV4
Q29VV7
P14756
P21133
Q8L735
A3FQA5
P47989
P0AA39
B7J413
Q9LRM7
P0AA37
Q9LRC8
Q8S948
N0DKX5
O24677
Q94IB8
Q55781
P51648
P51649
P0A9H7
O43980
Q8TNI1
P0ABM1
Q88M11
P39325
Q9ZQI7
P27809
O80433
G8C419
Q56Y42
Q9C8W3
P0C0L2
P60955
P0C0L7
Q9KXN1
Q9DCN2
P64423
O53493
Q9NBB5
D8QTR2
B6SF67
Q10469
O05152
P05194
Q75VX1
Q01650
P25894
Q05932
P00480
Q05931
O75911
P52045
A9WC40
O26149
P52041
P52043
P52042
O07801
Q9CA79
Q9HWJ1
Q9CA75
Q5UNS2
P0A948
Q38802
Q31NT9
P0A944
L8EVI4
G4N137
A8HMX2
O26920
Q16647
Q54812
A0A0G2QWN7
P27356
Q54811
D3RNJ3
Q9LBG0
Q6F4M7
P43667
Q06346
Q6F4M8
Q6F4M9
L7P9J4
P78008
P97364
Q92N62
Q8S3T9
Q8S3T8
P22033
P15700
Q6BDZ9
P0CY89
Q7B7H7
P04718
O22912
Q5NF59
Q6ET36
P19642
P9WN93
A1BQV1
Q53U20
Q4VKV1
P73925
W5DYE3
P19318
P73922
Q43846
A0A0M3N0G0
Q6W4T3
Q6W4T0
Q6W4T1
P37001
P49350
P00973
Q16822
B9DFX7
P04670
Q57146
Q58667
P32783
Q57142
P0AG24
P0AG20
O28480
C5C7A1
C5C7A0
Q68FS4
D7F4K3
Q96DE0
Q9M3W5
P36551
Q9ZAK3
P36553
Q94AQ9
Q9JK38
Q84NI6
Q84NI7
P84058
P37758
P37759
P0A9L5
P0A9L8
P49748
Q9FFN7
Q39982
P77348
P34959
P34958
Q6FFQ0
Q6FFQ1
Q6FFQ2
P34957
P34956
O82399
Q12618
P69828
Q9HCC0
P60844
P69824
B0LUE4
O82392
P69820
V4HSG8
P69822
A7YF26
P11926
A7YF23
P06732
P0A6R0
B4FVP3
P55084
P06737
Q84ZW8
P07648
P55734
Q84ZW0
Q84ZW1
P69797
P69795
P08957
P69791
Q8SA63
A4F5C3
A4F5C2
E3EJK4
A4F5C0
K4JEW9
A4F5C4
M1SU70
M1SU74
P9WP23
H9LBK6
B0TBI9
P28305
Q59523
Q27088
P40106
P70584
Q9LD43
P31129
Q31LQ7
P31125
Q38970
Q9AE01
P31122
Q00460
Q08650
P0AFL6
Q08653
Q08654
Q00469
P39172
P39176
P09193
P09192
A0A0A8J869
A0A0A1H115
Q08438
P42592
Q8NQC8
Q27UB1
Q27UB0
Q7YTB0
P15977
P53070
Q8KH14
Q9C826
Q6DWK3
P0DMM9
O06543
Q8GWW7
P09773
P09772
Q0JF01
Q8EG63
P00369
Q0JF02
P00363
P00816
P00811
P00813
P00812
Q8NSY6
Q8IVS2
Q39615
A0A0H3C8Q1
A8JGJ6
P19871
P0A006
P0CL07
O81638
Q8GUQ8
P49107
Q92CR1
Q56775
E2JA32
E9NH27
Q31RZ4
Q9Z9I9
P20051
P75250
Q9SDR7
Q9SDR6
P0A9Q9
D0VMR7
Q8RHX1
Q5W915
Q92W82
P0A9Q7
P0A9Q5
P25718
P38009
Q3J4D9
A3SR26
A3SR25
Q8WYR1
Q3J4D7
P52705
Q9ZPH4
P11310
P52708
Q9I5Q5
O27179
Q95NZ0
Q31PL1
Q8GXU8
Q9FLT2
Q56770
Q5XVM9
C8VAU8
D4GYG6
A8MRX0
Q8U0Q0
Q7NNK1
O95479
A3LNE3
P9WPW1
Q594P3
P9WPW9
Q48303
O27289
P42837
Q9S3V0
Q9KHJ9
Q56772
C3K9X5
Q58504
P40747
P50281
Q57888
Q4QSN4
M1X895
P33751
P36969
P94552
Q81JX0
Q9SU56
Q64602
P33195
Q9WXS3
P19787
Q9WXS4
P31979
Q9LV91
P33224
P33225
P33226
A6Q234
A0A0C5K362
P33221
P33229
Q56687
P0AEF8
V4HM83
F4JQ95
E3PRH0
O94788
P37692
Q05332
Q58Y44
P22525
P22830
Q12723
Q02825
A8GEY0
Q4U1D9
O24738
Q16613
O81850
Q81A42
Q7Z9L3
O25465
Q06178
Q0KHB6
Q8VWB4
Q03674
Q6T1W3
Q6T1W2
Q56062
Q56063
Q6T1W7
Q6T1W6
A0A0U1KV23
P0AD42
Q6T1W8
P75894
P75897
A4YDS4
P75892
P07633
Q9UBX8
G0FUS0
Q9RHD6
Q9RHD7
Q48389
P50135
Q84VV6
Q8VYI1
P0ABS5
Q4KCZ0
Q5GJ60
P38169
I6YER9
P13016
P30750
O14405
Q9F1Y5
A0A0M3WPF1
Q04797
P39344
P27829
P39346
H7CE84
P76514
Q9NRX4
P0AES6
Q9LM02
Q93TU6
E2GC98
Q9LZG0
Q96529
P24298
B7JAL3
B7JAL4
B7JAL5
P56891
Q88FY1
Q5M731
Q0GYU5
Q54765
Q54764
P31382
P0AC19
P28475
A1DN11
B6D7P2
P9WFK1
E9RCR4
Q59220
Q9L9E8
Q9L9E9
Q9L9E6
Q9L9E7
P68183
Q08352
P68187
Q9HWH2
P52067
O07821
Q5SBL6
P52061
Q54506
Q9RA21
Q9RA20
P0A921
P0A927
P0A924
P31120
P0A1I1
A4IT48
O49482
Q8XNZ3
Q93ZN9
Q0PB51
Q3I411
Q99873
P42338
P42336
A0A097SRE8
Q1AHB2
P42330
Q8ZRS8
V4HJ70
P28297
L0LL45
E4QP00
O05544
Q188H7
Q8ZRS5
P15565
Q75HB1
Q9AL96
P21515
G9MAN7
P21517
Q05911
P21513
Q14376
Q8WW01
P77937
A3DDF1
Q58Y43
P27217
P27219
P74917
Q9R919
O93785
O43272
Q9LSZ9
P53629
Q5VZY2
Q7A649
P26294
P54935
P54934
O22397
Q14117
P73948
A0A0H3PBA7
O31652
Q53U08
Q53U09
Q16842
Q84G06
Q9XDM9
Q8KES3
Q976E4
A1BCY2
Q9XDM4
Q8X1D8
Q0KBP1
P9WG57
D5J9U8
P30967
Q9SS01
Q9SS04
Q94F00
O14792
O04705
L7X3S1
Q9NPC4
P9WNL7
Q7Z1D9
O65688
Q9SIQ8
P14775
P73495
Q94AS5
Q6YTF1
P14779
Q8E369
P75792
Q5IW45
P75796
P75797
P75798
P75799
P0A9J8
Q7B609
P77324
Q0ZQX0
P0A9J0
I3IR93
P0A9J6
P0A9J4
P69805
P50440
P13929
Q9SWW6
P69801
M1X5E4
A2RUC4
A0A0H5B846
A0A033V6J6
Q8NIH7
P07262
Q56774
Q9HX08
Q51075
Q03649
Q9HX07
P0A6P9
P06715
Q9LIK9
P77495
B8M9J8
B8M9J9
B0VDT4
B0VDT5
B8M9J6
Q56773
Q13724
O06585
O07051
Q88C65
A0A1D9FLS6
Q8GRF3
D7P5W5
P0C0T5
P0DKY4
Q7DHH4
P38287
P38286
P48419
Q43315
Q43316
Q570B0
Q5GA22
A9ZPJ6
P0AFJ7
Q6W5Q5
Q6W5Q7
Q6W5Q0
Q6W5Q3
Q8KQ23
Q8KQ22
Q8KQ21
P63224
Q6W5Q8
Q6W5Q9
Q1Q0T4
Q1Q0T3
Q1Q0T2
Q8LKS5
Q84P54
Q0E7C4
Q84P53
P09172
K4JH70
P0AC00
A0A097ZL30
Q2EMU7
Q8NM40
A0A0M3N196
A9A1Y2
P40493
O96693
A0A0M3N199
D3RPB9
Q8RJB2
Q9FEY5
P15993
Q9AST3
C6KTB6
P56007
P56006
O06834
O06835
O06836
O06837
Q8GWU0
K4JII8
A5JTM8
Q07982
Q48935
Q675K8
Q675K9
P32861
Q5FTS6
P92506
Q31QD8
Q38856
Q2XSC5
Q2XSC4
A9WGG0
P0CF88
P46310
P46312
P46313
Q8RR27
Q8RR26
P0A8Y5
P0A8Y3
P0A8Y1
O75891
Q94A63
P9WN11
P9WN15
O60760
O60762
Q9ZUX7
Q15185
Q9X404
Q9X405
Q93XK2
Q70T29
P17846
Q465W3
P28629
P80436
Q9L4W5
Q9L4W4
Q05584
O64470
Q05582
Q9L4W3
Q8GS60
P96797
P96796
O22898
Q9L4W8
Q93NP5
Q41156
Q825I8
Q13126
Q9NRF8
P14168
P18054
Q5UY95
P22729
Q5ZXH8
Q5ZXH9
Q53562
Q53563
Q54240
P32288
Q9FD33
Q3XW69
A0A0H3KEV0
Q5P8R9
Q9C9P4
Q8W4T9
C1K5M3
C1K5M2
U6C5K2
P75785
P40991
P0A2G9
Q9MBF5
Q00985
Q9H4F1
P54767
Q8DRN3
Q9HAB8
P05719
P32138
P76014
P32131
Q9ZRP7
Q46N56
Q46N54
Q46N53
A7BJ36
A7BJ35
P33421
Q8RN89
Q46ZL2
Q9S7N2
Q820V3
Q9KQG2
Q820V4
P07244
O48782
P07246
Q6E7K8
Q6E7K9
O24133
P61615
Q9SMC1
Q5P5G7
P0A7D1
P36639
Q50L36
B7X8D7
B7X8D6
P41543
E2IQH7
P11472
Q9XF43
Q16678
Q9L9F4
Q9L9F3
Q9FQ77
A8IWH9
P09924
D2Z030
A4D0H5
Q9L9F1
P10481
P07650
P07654
P0AD68
A5KI48
P07658
P0AD61
P00456
Q832R8
P0DPB9
Q0WFN8
P17752
H6AGY1
H6AGY0
Q7KNR7
Q84VT1
Q9ZNE0
Q0WFN6
P40191
P0ABQ0
E2JA27
P0ABQ2
Q5T6J7
P0ABQ4
P38145
P38149
Q76FP5
E2JA28
Q44574
Q96NR8
E9NX40
E9NX41
P76270
B3FN88
Q6WAU1
Q9F7E0
P17060
P27848
P49957
Q9EY50
Q46336
O87082
Q4A3R2
Q06667
Q2RWB7
Q5P8T2
Q9LZA6
P29051
Q5JD63
P14909
P14902
P14900
P64461
Q9X0C8
A8JI60
O49313
Q94IN5
P09546
Q55928
Q55929
Q9SZJ5
Q9L9G0
P08142
Q9L9G2
Q54528
O88533
A0A3S5Y2N2
P32459
Q31P08
Q8JR20
Q31P07
P52006
Q93EJ9
A3DD31
A3DD30
Q9UKM7
Q9RA02
Q9RA05
P21685
P21687
P96890
P43336
Q86T03
P21688
Q9ZUY6
Q9QZU7
P45470
Q95554
P45472
P9WMK5
Q4WZ64
Q4WZ67
Q4WZ69
Q04519
P28903
P60390
P15505
P62707
P24182
P00448
A5N802
Q9ZND9
B3LF83
A5N801
Q9ZEX3
Q9H7Z7
P00441
P27278
Q92UG1
O43252
A9WI23
Q4JHU5
A9WI24
P76249
Q40412
A2FXW5
B5AFK3
P76242
P76245
B3TZD9
B3TZD8
Q44256
Q44257
Q44250
Q44251
Q44252
Q44253
O86041
O86043
O86042
Q9LDH0
A0A097ZPF7
B3TZD7
B3TZD6
Q38710
Q9T0J9
A9WBQ8
A9WBQ9
P50909
O31675
P44251
O31677
C5CBS9
Q6W4P8
Q39002
Q16864
I0IVN0
Q9LBV2
Q9LBV3
P25696
P25697
P9WFR1
P97852
B2J8P8
Q9LW15
P0ABI4
B2J8P1
B2J8P2
P77044
P25526
P25527
P25522
P07118
A0A0A8J6B3
P05847
O31668
Q58097
P11509
P0AAP1
Q9ZVY5
B6VP39
Q9SQ80
Q9BSV6
P39890
O24676
P61136
Q768S7
Q768S6
P0A9H1
P0A9H3
B6CBL8
Q768S9
O24678
O24679
Q1PSI9
P61421
P77302
Q9C5I1
P77304
O70475
O87278
O82357
Q39033
O68391
Q0GZS3
P50076
O66251
Q8RQW0
P21334
Q8G8E4
Q4KAM4
P09099
P21338
P08997
P80042
Q1GY13
P80041
P30566
D4GP41
Q8NCE2
Q8NCE0
G0ZEV2
Q7CP78
Q31LM3
P31166
P80175
Q31LM9
O25094
Q84KS8
O25093
A3DC34
Q9LLM4
A3DC30
P48439
P0AFH2
P0AFH0
P0AFH6
Q08960
Q52385
Q52384
Q52387
Q52386
P0AAB4
Q52383
Q6QDB6
Q07341
Q07340
O05616
Q9I168
P09155
A0A067YX61
P09152
P09151
Q9M111
Q01775
P18900
P09158
A6T9C2
Q50892
P0AC23
P0AC26
P0AC28
Q8S4R4
O34753
Q6PQJ9
D1H0I6
D1H0I7
D1H0I0
P07464
Q59054
Q84N56
P45799
Q9H8X2
I3RFR4
I3RFR5
I1Z9G0
Q9C0D9
Q0P8U0
Q06494
P72021
P72020
A0A0L3J9K0
A9KM56
P13807
P92980
P92981
P92983
P78540
P23200
Q94A08
O08453
Q55725
P05342
A8HQ36
Q99999
P75218
Q58540
P76491
W5U2K2
O75747
P00272
P72793
Q9L4U6
Q9L4U4
B0KSN7
P08465
Q14739
Q41131
Q70AC7
Q31R11
Q31R12
Q9CAK8
Q99190
Q9FLP9
P53296
P53294
Q7V6D4
A0A0D3QU48
D2KTX1
P54745
P54746
P0C1A9
P25535
A1A6H3
Q92LH1
P0C1A5
A0A0M3N0F5
P0C1A3
P0AEY5
Q99447
Q5NTH0
Q92W81
E7FL15
Q6WAU0
P72579
D2KTX0
P0AEY8
P0A1P4
Q1QWN5
Q9XTL9
A5JV19
Q6QHC2
Q6QHC5
P32156
A5W4E9
Q97YM2
Q9RGD9
A0A0M3WPQ0
Q93PD0
B2XBQ5
P36929
Q6XMI3
B8R4L9
P36437
Q93PD2
P40925
P33401
P40926
Q2YIQ2
P37197
P37529
P37528
P12996
P12995
P12999
P12998
P37527
P30850
A0A0D6HUA0
P11712
P69451
Q9ZGH7
Q9ZGH6
Q53353
Q9ZGH0
Q9ZGH3
Q9ZGH2
P22564
Q93XR2
P19526
P0AF67
P0AF61
O04373
F8WKW0
Q52551
Q07946
Q9FPK7
Q9LDU6
Q9BX61
I7CT85
Q2FZW5
Q8L799
Q9BV86
O58832
P37388
P37387
O60942
P30176
Q0IP69
P23786
B0K2C2
Q133E1
C7P8V7
P38122
P0ABW0
G5CKL3
G5CKL5
G5CKL6
P95565
P95564
P95563
A0A076N8Z0
P39831
Q9LZC3
Q9M617
Q57199
Q285R5
Q9M618
Q1R9Q7
Q333U7
Q06136
Q9ZGH4
Q8VWN6
P13711
S6ANZ6
G1JSL5
Q333U8
A9ZMY9
Q88FX9
Q88FX8
P14920
P14294
Q12882
Q5JD03
Q12887
O50440
Q8L7D5
Q51559
O00459
O00329
Q9V1J7
Q8RL92
P06106
D1MX88
Q59268
B5APQ9
P48596
Q04945
P0C037
D1MX85
B3EQ32
Q9CA93
Q9CA90
Q5SBP7
M1T9N7
Q5SBP2
A0A3S5Y2L4
Q79AV1
O49196
P31440
P31441
P94682
P83379
Q32P28
P43317
E5KJ94
Q9H1B5
Q6USK1
Q38860
P07738
O95992
A8J4S9
P76027
Q9HZJ2
E5KJ97
Q948R1
O52379
O15357
P22367
E3W9M3
E3W9M2
A4YGI1
P32386
P76008
Q45R38
P53193
P53199
Q56WD9
B1N7G9
A5N390
Q9H7X0
Q8VPV9
E5KJ98
Q8VPV7
Q8VPV6
Q9LAP7
Q814Z4
P0DPC1
Q46901
P0A8P1
O33477
P24077
P00467
F8WKW8
D3RVA2
Q7M1E9
D3RVA1
P02918
P02919
Q5LLW7
Q5LLW6
P0A786
Q9LSV0
P0A784
P49088
Q8RNY0
A0A097ZPD8
P35520
Q8VQF6
A0A097ZPD4
A0A097ZPD5
P49085
P10127
P45413
P54979
P45416
P54970
P54977
Q8N4L2
O31618
O31619
H9N290
H9N291
O31616
P46852
P46850
C5B2R8
P46859
D4GP31
Q9FEB5
P00961
Q05628
Q9DGD1
O22683
O22682
P27254
P27250
A9A1T2
P27253
R4NDV8
Q9ZWQ9
E5KBU4
Q5D0G3
Q9NS84
Q8W3P8
P9WNH5
Q9BHM6
O54591
P72584
O84835
Q9ZAU0
C0LTN1
O54593
P71858
Q8L5K7
Q8L5K8
P23577
P05694
O23489
Q8PDW5
Q8PDW6
Q8PDW8
Q9ULW8
P0A185
P40047
Q57703
A9CI11
Q0X0C2
P70697
H2KWF1
Q9MB82
P0AGH8
P0AGH3
Q949Q5
P50053
A0A287A7R1
Q6BQZ8
Q96V44
P0A6L4
O50146
P0A6L0
Q1YMR1
P33361
P33360
P33363
P33362
Q6EFA4
P95482
P21310
P15067
P37268
P37269
P80064
H1ZV38
Q9LA72
P31638
P31142
Q2LQN9
A0A0D6I2A7
Q9K864
Q5J1R2
B6VJS4
Q194Q0
Q194Q1
Q194Q2
Q194Q3
Q194Q4
P0AFF0
Q194Q6
P0AFF2
Q9RFM7
Q8W213
Q83WG5
Q5P8T3
P72701
P03833
P13039
P39007
P09139
P13036
Q9M423
Q9M422
P13033
Q9M424
I6WHP7
P0AC41
P0AC47
P0AC44
Q9NVF5
P37255
Q59702
Q92185
P04183
D0VMR6
P04181
O33707
A3DH67
Q9BXS1
Q9Y4U1
P35731
Q9HYV7
P0ABR9
P39199
P39661
Q402A8
P39196
P39197
Q9L553
Q9L550
Q9L551
Q9L554
Q9L555
Q2FV57
Q9Y6K0
Q00001
Q4JDG7
P71079
Q9X4Q6
Q9Y6K8
P08263
P05361
P09424
O49505
A0A068BIF1
Q32M88
Q9F2F9
Q7X0P3
Q9NRB3
D3WZ85
Q82TA4
D4HRI8
Q82TA3
D4HRI3
D4HRI2
D4HRI0
P39835
D4HRI5
D4HRI4
Q8K4H1
Q9FGC7
Q8LBL1
P39832
Q8DRJ3
Q7Z2E3
Q48796
P32173
P32171
P32170
Q68YB3
P32176
Q02896
Q8IW45
Q09328
Q99312
Q9SBR4
A5W4G5
B0L7G4
B0L7G3
M1V1S0
P60584
Q03723
P33178
Q93A46
Q8H183
Q60FX1
Q9SP61
P33177
O88816
Q9XZT6
P19099
P19097
Q92813
Q02096
Q2MF60
Q2MF61
Q2MF62
Q2MF63
Q2MF64
Q9UHH9
P12975
C5H429
P07203
P07205
B1NF18
P0AFG6
Q9H635
P03959
O22141
Q8GSM7
P29218
Q47843
O94766
Q52V68
Q52V69
P0ADG4
P0ADG7
Q6RS95
Q52V67
P38913
Q8WUX2
P41052
Q194R2
Q4KXC9
P50264
Q50751
P04406
Q42600
Q9Y8H5
Q9FPM5
A1RCJ9
P84196
Q88GX1
P30153
P84193
P00389
Q47KB1
Q9M8S8
Q2KNL5
Q2KNL6
P0AEG6
P52046
Q72LF4
A4YDT1
Q9BUX1
Q7XB14
Q54355
P50199
P13716
Q9MBA1
Q76CA9
B0VXR3
P69432
O70023
Q4KXC7
P36672
C1I208
Q8L7F9
C1I201
Q9LJL4
Q9KWR0
Q07064
P14290
Q51393
Q51392
Q9I4X3
Q9I4X2
Q9I4X1
Q0PQA2
A1Z6N4
P0AEP1
Q96W85
P9WQ47
P51020
Q9K498
P51025
O82520
O82521
P69380
P05117
Q9XGY6
O30375
O30372
Q6LY39
Q6LY38
Q54873
A0A1P8VSL7
F1SVH7
Q5HEB7
P06129
Q44116
Q59934
Q59931
Q8RL76
Q8RL74
Q96CD2
Q8RL72
Q8RL73
Q8RL71
P0ABU5
P0ABU7
P0ABU0
P38101
P0ABU2
Q9Y093
Q9ZRY0
P38109
P0ADF6
P52599
P39276
A0A3S5Y2J0
A0A3S5Y2J1
P31462
P34106
P31467
Q93WC0
P00709
Q9SAC6
Q9SAC0
Q92MZ4
P96855
Q38882
Q9Y274
P29012
Q7XA48
Q9Y278
A2SP36
A2SP35
P29018
P25906
Q8KI52
P22307
F2YTN5
Q8VPT7
Q8VPT6
P53178
P53177
Q5ZC82
Q1PID4
Q8VPT8
P00401
Q9LLY2
A3DCH1
A3DCH2
Q93YV0
Q44740
Q46920
Q46925
Q46927
Q9L9C1
Q57600
Q9AY27
P02930
Q46675
Q7M1C7
Q15800
Q8R0X7
P53318
C4MF47
Q39227
O97439
P53314
Q9SGU9
Q0HWI8
P07287
P35503
Q0HWI7
Q8NEB9
Q9T0N8
P75392
P75393
P42428
P75391
P42356
P42357
P42420
Q8XAB7
P41338
O02766
Q6BE24
O31200
Q05600
Q05601
Q05602
Q05603
Q50565
P0AFT2
O87681
O87682
Q9SHE8
O87689
Q1JUZ1
Q59910
Q9LAG3
Q4H4E7
Q4H4E4
P27507
P27508
Q8N5D6
Q43305
Q27Z07
P71875
O33998
Q99707
P9WNF9
P9WNF7
P11543
P11542
A2IBI0
G0LNZ9
Q9ZQ99
Q9ZQ94
S6CD01
Q8PVV3
P0A9D8
Q7S187
Q9ZN74
Q3V4K4
P0A9D2
P37025
P0A9D4
Q8N661
Q9I6M4
Q9I6M5
P23883
P23882
Q9H9S5
P23886
Q3A7N7
P0AGJ7
P15639
P0AGJ2
Q3KC85
P93841
P0AGJ9
Q9LW56
P31442
P0A6J8
A0A3S5Y2L2
Q9KHL0
Q704S8
P0A6J1
P0A6J5
P50162
J7HKM8
A0A0D4BSP3
Q9SL92
P19971
D3U1D9
P22680
Q12043
P16256
P21373
P22939
P15042
P42630
D0ZLR2
D0ZLR3
Q51792
P15047
P03960
Q2MFF9
Q9P855
P13702
Q8RKJ2
Q9UKK9
Q8RKJ0
Q8RKJ1
P73824
O53430
A9BCF8
Q03778
Q9LA16
Q9LA15
P0AFD6
P0AFD4
P0AFD1
K0E2F3
Q03941
Q845J5
Q2I8V6
Q07471
Q9Y2A9
Q9C1B0
Q9C446
Q9C449
Q9C448
Q9C1B8
B2KZE7
P03813
Q83WF1
Q59546
P03819
Q8VUC5
P09110
Q59542
Q59543
O87901
P16661
P16662
Q9BYG0
A1IIX2
A1IIX3
A1IIX4
O34714
O58649
Q76KL5
A8JCU4
P56062
P56067
Q0KAG5
P35754
Q59760
P95748
P9WIT3
Q9FBG4
O94142
A4VHZ2
P39644
P39645
P39640
P39641
Q949X0
P39648
Q9M401
P0A6X1
Q01738
A0A0X8IUP5
Q04924
Q975F9
P28577
P78055
Q949X7
Q61153
O75521
F9ZZH2
A0A0M3WP31
Q9F839
Q9F837
Q9F836
Q83WF4
Q9F834
P08244
Q9NPZ5
Q8H0D7
P71016
Q9FG67
Q47400
Q7RX33
Q8KMQ5
P05307
Q9H479
Q9RCF2
P54838
P54839
P59807
Q41461
P54523
Q27657
Q53589
Q31KS4
P52788
P52789
Q940N2
P92994
E1V7W0
E1V7W1
C8YX90
Q01198
Q9SWQ9
Q7WYX5
O13284
P43123
E8ME30
A2VA20
A2VA21
P45359
P54781
P54783
B4G072
P32198
Q71MJ3
E9P8D2
Q02567
K4REZ6
P53780
B0L7E7
Q52987
Q52986
F8U970
Q9RGX8
Q9LU64
Q9L4Q3
Q70SY0
P10088
Q9AGY8
O75936
Q97YI7
P60720
Q4AEC5
Q02742
P07954
Q46444
O48721
P46952
Q6ZNW5
P58314
Q9FXE5
E0YCS2
E0YCS3
P60651
Q14697
P21893
A0QXE5
A0QXE4
Q8GGG1
C4R7Z3
P0AF24
P19569
P0ADA1
Q9FCA6
Q9FCA7
P14012
Q9ANX1
Q9ANX0
Q9ANX3
Q8N3Y7
A2PZA5
Q8N3Y3
Q9RUN7
Q03336
Q96HY7
P04424
P04425
Q97F53
A0A182CYR2
Q58584
D7R621
D7R620
Q8DPV9
P30131
Q8EJI6
O60909
P30137
P30136
P30139
P30138
P47924
Q72LF3
Q9RBP0
Q9RBP1
C5C799
Q9RBP4
Q9RBP5
P49601
P75817
C5C797
Q9NXJ5
Q75WN8
A0A0H3JNL8
A8CF85
Q79DN7
A8J000
P08619
Q8GHB4
P60906
P22635
Q06241
P11759
Q9H5J4
A8JCL6
P37128
Q9NSC7
Q15274
P77555
P02916
O00142
D2PPM7
O52806
O52807
D2PPM8
P51553
Q7TXK7
Q7TXK6
Q7TXK5
Q7TXK4
Q7TXK3
Q7TXK2
P05177
O80560
Q7TXK8
Q9UL01
P06149
O50406
Q46806
Q93EK1
P0C077
Q93EK0
C4MBZ5
B8RCD3
B8RCD2
Q8RL55
Q8RL56
Q9VFS2
Q93EK2
Q9KWT4
A9YWN4
C8YX88
C8YX89
Q9LVI9
A0A1L1VVY8
F9VPA4
M1KVN4
C8YX87
Q31NZ1
A8KQY8
C8KHM6
P18886
A8KQY0
A8KQY4
P92558
P24215
Q9SAA9
Q55182
Q4JFF2
P07762
Q4JFF4
P29564
Q9STC1
A0JC77
P78330
H2DH16
P71241
P25924
Q8KI76
P76041
Q4WAW7
Q9X034
A3DCJ2
Q0ZS27
Q4WAW9
Q9M7I7
P18775
P18777
P18776
Q32NB8
Q88J54
C5MR71
P21599
P00424
P00934
P00427
P00420
Q5EU90
Q9ZER2
Q46948
Q82PP4
F6MZ55
O43837
O53699
Q7CWE8
Q93ZB9
D7F5M0
P53332
P0A749
P0A746
P0A744
Q93ZB2
Q9X0L4
P10898
Q5U925
Q0X0B4
Q0X0B3
Q0X0B2
Q0X0B1
P60484
P49040
B0CN39
Q94IA6
B0CN31
P45410
P9WMN7
P32695
P27744
O68107
M1VMC6
A7TZT2
D4GU69
P46891
F0V1E3
P0A560
Q9M6E2
E9R9Y3
Q9SEE5
O75648
P14081
Q13085
P23457
P27298
Q02979
Q49124
O95237
Q96YC2
Q02971
P75044
Q8Q0G3
P26168
B8EJ01
B8EJ00
P26163
B8EJ02
P26165
P26164
P0DKS9
P9WND9
Q9VGP2
D2D3B2
Q12645
P23538
Q9V2G1
P11568
W0C960
P45381
A0A239TK08
D0S1M8
Q58247
P06961
P06960
Q58933
Q9FV24
Q57749
Q9Y7D0
Q9Y7D1
Q8TII4
P97521
Q9Y7D5
Q9HJS1
O82330
A9ZND1
Q3TIW9
P0AGD3
P0AGD1
Q93TN0
Q9Z3Q7
A6NK06
Q9Z3Q8
Q9AXJ2
P0A6C8
Q5Q126
Q97W92
Q8GJ88
Q9KSH6
P33327
Q12062
Q12063
Q4G1W1
P22666
P16233
M4IRL4
P0A9B2
Q96KN2
P15028
Q16773
Q16774
P09880
Q9XDB3
P10760
P09787
Q06508
Q66QH3
Q84KI1
P9WNL9
Q03020
Q56165
Q56164
Q56167
Q56166
Q9R744
Q56163
Q9Y2C3
Q71RU0
O93884
P0A6H1
F4G1H3
P0A6H5
P0A6H8
A0A0A6ZFR4
Q8ZNR5
P9WJ63
P9WJ61
O32272
Q84AD6
Q8PZ67
Q12452
Q12455
P0AC88
P0AC86
P0AC84
P16640
P47712
P0AC81
Q471R3
P39400
P39401
P39406
O24963
P31675
P31677
P31678
Q9LYT1
A0A182CZ54
Q6YUU2
G2IQS7
G3G009
Q86UY6
C0SVZ6
C0SVZ5
S0EEY3
A2Q8B5
Q00593
Q3IZ43
P05093
Q8PUM1
Q93099
Q7LFX5
Q9AEM9
Q603D4
Q603D5
A7MAS4
P77766
P0A9C3
Q8RBD0
E7FHW8
Q8NS80
P57681
O34845
Q9C5D7
O26061
Q9HKT2
Q9HKT1
P52415
O07921
P52410
P31094
Q9AH80
Q93XC4
Q988C8
P17516
Q38920
Q38929
Q4JZA9
Q9NRN7
Q93NH4
L8EW00
P76387
Q79FV4
Q6PNM8
H2IFX0
P76630
Q0QLF2
Q0QLF3
Q0QLF4
Q0QLF5
Q0QLF7
P21437
Q8NLB7
P9WKL1
A0A164L5U2
A3DJ81
A3DJ82
O68841
Q8NKG8
O68843
D6R233
P93479
Q2G2M2
P76562
O84834
Q9L6L9
Q8GT57
Q1JNS0
P12852
P12853
P76145
P04058
Q84T19
P19730
O22769
P19731
Q94LW9
D6R244
D6R245
D6R240
A0A0U2V7I8
D6R242
D6R243
Q9HH76
O65782
P12931
P23908
Q5HZ00
Q9ZAU3
P41277
Q72FP0
O33904
Q9UNP4
P46976
Q8EEA9
Q9KJF1
A0A0D5YG30
Q84U73
Q9KJF0
Q9SR43
P30845
Q58037
Q58036
P71857
O14832
C5NN14
Q9ZW85
Q9ZW84
P0AF01
P19581
P19580
Q5AI24
Q9AQF8
Q9F5K6
P60620
Q6LZM9
B0F481
P77165
Q6GFF9
P50226
P50225
J9R5V4
Q643C8
P17952
E3VWK4
Q9SJD4
E3VWK2
E3VWK3
G5DGA8
P37329
Q9UBR1
P75830
Q64FW2
P75838
Q9M1T1
Q47878
Q4H4E5
O52790
O52793
O52794
Q9WZ09
A5A8G0
P9WQE9
P0ADC6
P11004
P11005
O70572
Q9SPI9
Q6UEF3
Q6UEF4
Q9C5Y2
Q9C5Y0
Q6Z2X6
A0A0F6P9C0
P37146
Q9LZI2
Q8CJN6
Q8DNY1
O74212
O74215
P25051
P25052
P25053
O87008
O87009
O95050
Q9BPW9
Q6Z5I0
P0AAG0
P0AAG3
O59412
Q06SN0
Q5JBG6
O07177
Q7TXM1
Q7TXM0
Q9P2X0
P05150
Q9HZ76
Q9XIA9
P55218
P06169
Q8MP06
F1SVL1
Q9LX33
Q43075
Q84DC3
Q1XBU5
Q1XBU4
B0LUZ5
Q59971
Q8YHT7
Q9F284
P38418
P38419
Q6QUY3
Q6L6S1
P39298
M4I1C6
Q9LNJ4
Q26304
Q7BJX9
Q9LF50
G0RH19
Q8S3J3
P70712
A2SP72
A0A0D4L589
A2SP77
Q9Y231
A8IL32
Q9L3F7
P10515
P94679
Q4WMJ7
Q9ZSK5
P39580
Q4WMJ1
Q4WMJ8
Q0PCI5
O33825
Q8KDI7
Q76HN4
P15586
Q15GI4
Q15GI3
P0A7I7
P56744
Q8MUP8
A0A0H3FN91
Q50332
Q9F2A0
Q63159
P00914
P00915
A8IYH9
O06644
P52086
Q7X9V1
P49067
A0A089QRB9
P36937
P53868
P0A763
I6Y242
Q46829
Q8VZE9
P09368
Q9SGY2
P14324
Q4H424
Q70EZ7
Q70EZ6
P11797
Q96UG5
Q5SK88
P27763
P27764
P27765
Q9AFC7
Q39085
A0KYQ5
O69787
P27544
P87017
Q54304
P14060
O43708
P0AGH5
P00959
Q58484
Q58487
Q9WX54
Q47945
Q47944
A8J270
Q6LYX3
Q47943
Q9ZET3
P93082
P93083
B7X4E0
Q8E8Y0
Q5KQH7
P0AAX8
O85728
P32019
C0SJS3
P56707
P0A817
P0A814
P0A812
P17109
P51580
Q9AV97
Q9LR44
P34059
P45574
O66036
P06988
Q9WYS1
P40025
P06987
P06986
Q8GAJ2
P06983
P0A6L2
A0A2R6Q8R5
Q8L3S7
Q02338
P0AGF4
P0AGF6
C0LTM1
A1RVM8
P33650
P33300
P36150
P45850
Q9I182
Q5AU81
P16218
P16219
Q9XG83
P15005
P15006
F2Z9C1
Q9FFZ1
P37794
P22641
P22643
A0A097ZPD9
E7EXW6
Q2FWH4
Q16719
Q42391
P00881
Q5K5T6
B2WSN0
B2WSN1
Q06528
Q44493
D3QY17
P10745
P10746
Q8A186
Q9NWT6
P07170
O83009
Q2G1B9
Q2G1B8
F8G0N9
F8G0N8
Q180C6
P41735
P41734
Q9LFR0
K0II72
B7SNW1
P0A6F1
P0A6F3
Q9ALA6
Q331R1
Q331R2
Q331R3
Q9SMT7
O14521
P15254
P47771
Q9NVH6
Q9BYC5
Q0P8S8
U3U992
Q3IZ78
A0A0S1RTU7
P17169
O60512
Q0P8S6
Q0P8S7
P0DKC4
C0SPA5
P31658
P0DKC3
E3GQA9
P77293
Q6CIB4
E3GQA8
Q9SQH9
G2IQQ8
Q86XE5
Q70GK9
Q9H8P0
P38332
Q5ZM32
Q9T009
P75522
Q31QJ8
Q9HIN1
P11832
F4G0D8
Q99KK2
O00757
Q47377
Q3LRV4
O00750
O87943
O87942
Q9SKE0
O87944
O33456
O33457
O33454
O33455
P78018
P08204
O32274
P78010
E7FHU4
P08200
P08201
P08202
Q9Y6A1
P20099
O30819
Q9FMD9
P0A2Z8
Q9LZ66
Q15125
Q15126
P38130
Q9SN86
P83788
P0ABV2
Q8CI15
G3XCQ8
Q8G9F9
Q88FM3
P38134
Q75VW6
Q8N6G5
A0A1J6U6V7
P95822
P95823
Q9QY93
Q2MJC4
Q75VW8
Q8GUE4
P9WHH3
Q7G602
Q8KHV6
Q11201
P00582
Q8VYX0
P24173
P24174
A9Y8S4
O75874
P24177
O75878
Q969G6
Q7XJ49
Q9SA77
Q09124
A0A0D4BST1
Q9FNB0
P0AEA8
W8JIS5
B0KQT1
P0AEA5
Q09128
O68640
Q8S9G6
K0I210
Q8N0U8
P76503
P0A8D6
A0A0U2X0E4
P04079
P04075
Q05819
Q67FT0
P54873
Q9STX2
A0A0D4BS80
Q9ZU49
Q12272
Q96PC2
P16027
Q9NKW9
Q3L8N0
A4YI89
Q9M602
A4YI81
B9U6P4
P07914
Q876R2
P46918
A1DN09
B6EP92
B6EP93
P46917
B6EP94
P49235
P29208
A4YGC7
Q0PVM6
P44514
P41036
B1GRM4
A9WKJ2
Q194Q5
Q96G61
Q194Q7
P09980
P69902
Q9SSZ7
Q8GBW6
P54291
O23051
Q9SSZ8
Q9SSZ9
Q6R887
Q92V75
Q92V74
Q9SU92
E3VWI4
I6X9J4
P75853
Q9C969
Q9LRQ8
Q72LH2
O84620
Q9FR95
P49641
Q6VVX0
O82741
Q06203
A0A0M3WNK3
D3KY98
D3KY99
P11068
Q56316
Q56317
Q9SPK6
Q56319
O59654
O59655
O59656
O59657
P12268
P50972
A7KX05
P0CS93
O85014
N1MWA7
Q3A7N9
C0QRQ1
P55180
P13798
A0A1S6M1P0
E7CQW6
K0E4D7
Q65YW9
Q2RJ79
V5TF65
P21258
P37303
P0AAE8
O51799
Q5BM20
Q9NS00
P0AAE0
Q4PEN0
Q4PEN1
Q8W1S1
Q03579
Q6K2Y8
Q2RXH9
Q8C0L6
B8Y8J0
P06968
P05108
A0ZZH6
Q8NAT1
Q14894
Q86ZF9
O34214
Q93WD2
P30793
P30792
Q941A6
P00490
A8KQU1
P74024
P74022
P74021
A6T9E8
A0A075X9G2
Q7PCC4
Q6L739
Q6L738
Q6L734
Q9STG6
Q2ENF7
Q948Z0
Q6L732
O30642
Q5UNS1
O30640
Q54813
D3RNJ6
D3RNJ5
D3RNJ4
Q54817
Q54816
Q54815
Q54814
D7PC20
D7PC21
D7PC23
P09347
M1VVW5
Q8KDG3
C3SBS3
Q11128
P56765
P56766
P56767
A0A1D3EM50
O60502
O60507
Q46982
Q46980
Q46981
Q9LVM5
O34126
O34125
Q39249
P0C960
Q13948
Q67ZE1
Q6E7F2
P9WMB5
B8Y445
Q8CHM7
P27707
Q58813
P27708
A0A0A8J412
P25960
Q9S7H1
O64883
P00393
P00390
P08566
Q9L071
Q9L070
Q9L072
P67087
Q41290
P46923
A0A0P0VI36
B6D7P1
P75089
Q7X279
Q54363
P48728
Q54364
P52600
Q9FZ42
B8XA41
B8XA40
Q9AT54
D4N1M3
A4IT47
O85764
P9WGT2
Q9WV54
Q8Y8X8
F1SWA0
O33708
Q9Y5Z9
P32422
Q9Y5Z0
P00558
A2V7M5
Q9Y5Z6
Q99259
P76190
P76193
Q8PW39
O23403
A9WIU3
G2IJ05
P0A830
Q9M6A3
P41939
P0A836
B1XHV0
Q8XAC3
Q8XAC2
Q8XAC4
Q94GB1
A2SIK9
I6XHI4
I6XHI0
P97562
Q02648
Q9C9C9
Q82T63
Q12390
Q5YJK5
B5GLB3
P26616
P31939
P26612
Q31KR7
P21397
P21396
P21395
P21394
Q9EXK7
P33673
P21399
Q8TPT4
P74840
P21639
Q9HZV8
Q9HZV9
P27457
Q9HZV6
Q9HZV7
Q16739
Q845K1
P0AED7
Q2RU33
P27100
Q9FV68
P26458
Q88N36
Q6L8G3
Q8GMW5
Q99PX1
Q8KTI7
A1SC71
P07117
O04121
Q8KTI8
B0VDT7
P0A6D7
P49585
P0A6D5
P0A6D3
P33261
Q02809
Q6LWL2
Q5LH69
Q8RBC9
A4YD22
A4YD23
P25397
P25396
O24926
Q9VY01
P23930
Q06549
Q07945
Q07944
Q07947
Q00266
P29933
P29932
P29931
P29930
P29936
P29935
P29934
Q9UBK8
P22873
P05055
P05050
Q56YV8
Q04944
E2PZ80
E2PZ83
E2PZ82
Q9UQY0
E2PZ87
O33478
P77377
A8I835
Q55808
P94254
O82730
Q15X88
I3PLQ5
I3PLQ7
P0A2X0
I3PLQ9
A5Z0G1
O80642
P22317
Q936S7
P69503
Q2LXU2
Q03103
Q2LXU6
P35914
Q8I034
Q4UM07
A3A871
Q59780
O15270
A6KWY5
A6KWY2
A6KWY3
Q3T552
P93789
P42588
P95806
P76079
Q92ZP9
P23877
P23878
P32395
Q9X4Q8
Q9X4Q7
P76341
P76342
P76343
P76346
A7B3K3
O54666
Q55777
O86491
Q3J3A9
Q9WXR9
Q5LH66
P0ABB4
Q9Y570
P0ABB0
P78033
P9WKH1
P9WKH3
P00561
Q5LH68
Q9Y6K5
Q9M8S6
P27138
Q5VJ89
P0AEG1
Q9KK62
P0AEG4
P27137
P27136
Q8VCQ6
B6V6V5
B6V6V6
Q5HYK3
Q9FVS9
P21636
Q44115
Q00459
P21889
Q2RXI0
P35669
O32433
O32432
O32431
O32430
Q48467
A0A0K0PVW1
Q9FN52
Q96PE3
C0SUK1
Q96PE7
P07286
O31201
O48741
Q876L8
L7T720
L7T723
A5N5C8
P24040
Q9ZN75
L7N5J8
Q58077
B3EJA0
Q9SBZ0
Q9L4W6
P21112
A0A0D4BSA6
Q5JFG9
P93438
Q8NKK1
Q53TN4
Q90WG6
P26267
P26263
D8S724
A4VHZ5
Q9Z4J7
Q9UVV3
A4VHZ3
P26269
Q96G03
Q9M4B0
Q8U2E4
O82139
O27772
O27771
Q3A7P0
Q8H103
O50657
P17315
A6XIG6
C0JRG0
Q9UBV7
P75876
Q9LJB4
P40526
Q700B8
B8QHP1
Q9LH76
Q9S777
Q05K37
Q4KN79
Q9SYK4
P23721
Q31NJ6
Q9SYK9
P54144
Q6NKX1
Q8S3A5
Q8S3A6
O23674
P0ACY3
P53738
O86938
Q1QWP0
Q1QWP1
Q8U3Y2
P50918
Q9Y8A5
P74473
Q9ZP06
P31806
P30402
P37365
Q9FJD5
P31801
Q9ZP05
Q9P999
P31756
P31755
P50622
P48570
F4K5W8
Q03471
Q06953
Q06952
H2E7T5
H2E7T6
H2E7T7
L8EW04
E1V4Y1
O19930
Q93FB8
Q4JAP8
P37188
P12532
Q4WV46
Q4JAP7
Q9KJF3
Q9KJF2
Q8LM92
P15819
P70752
P13114
Q84MD8
A8KQW5
Q4J8E7
V5TDH1
P21640
O86428
P21645
A4YGR1
Q9SAK2
P07702
Q3LFR2
A2QBD7
Q6QUY4
P39582
P39581
A4FVP2
P52849
P52848
P58416
P0A796
Q39978
Q9HZK1
Q9HZK0
Q84H44
Q9M7C9
Q59112
O81270
Q9M7C0
P29894
O81345
P35055
Q9ZET2
P00956
P00957
P29898
Q9ZET6
Q9ZET5
Q9ZET4
P47164
Q93Q23
Q6Q3H2
Q8ECU3
P39761
D3KVM5
D3KVM6
Q0PC20
Q9HNE4
Q31R74
Q9HNE3
P35270
Q89FR5
Q9NVS9
O53582
O53580
Q54697
O53585
P18797
P0A7E9
P0A7E5
P28272
A2R6Z2
P0A7E1
P25983
P0A7E3
P18798
K0E3U5
Q46899
P77806
P14020
Q9UHJ6
P08019
Q8TCY6
P30986
A1L4T4
O87605
Q9X0V7
Q2PWU9
P32582
A9CP13
Q8CYN0
P53396
P0A729
Q9RM86
Q9RM85
P0A720
P0A722
Q13393
Q41760
Q94AA9
P9WGV5
P32055
P32056
O23461
Q6XQ14
P32720
P32721
P48376
Q9RE15
Q8KR67
P9WLG1
P0A858
Q9LBJ0
A0A1D8PJ13
Q19TV7
Q8LDM2
P0A853
P0A850
Q9RBN8
Q9RBN9
I6Y3Q0
Q86Y38
P19468
P19465
P0AGB0
O65004
Q92ZP8
Q02890
P58255
Q9XD04
Q8W4E6
Q16539
F4IDU4
P15770
Q92ZP7
Q9H3R1
P60716
P38628
Q8X7P7
Q5CAF4
Q5CAF5
Q8L348
P11458
Q8L346
Q8L347
P11451
Q9NUV7
B0YA55
O27907
B0YA56
Q8GTB6
Q9ZGH1
Q6GW02
I1RF59
P04816
P04818
I1RF55
P22318
A0A067YYI8
Q58991
Q9Y2I7
Q9BY49
Q8L163
Q2G1N1
P44308
Q2G1N3
Q2G1N2
Q9AJC4
Q9AJC6
Q9FUP0
P0A6B4
P0A6B7
D4GYH2
D4GYH3
D4GYH0
D4GYH1
D4GYH4
D4GYH5
Q7Z886
